problem/backup/backup/a_pll_spice/spc_2_c/vco_SPICE_sysC.vcd
$date
    Wed Nov 14 23:05:58 2012
$end

$version
                 SystemC AMS 1.0 --- 1.0Beta2 --- unknown release date
$end

$timescale
      1 fs
$end

$scope module SystemC_AMS $end

$var real 1 !  v_ctrl $end
$var wire 1 "  vco_out $end

$upscope $end

$enddefinitions $end


#0
r0.000000000000000 !
0"

#737463
r2.910658938071887e-08 !
1"

#1474926
r5.828569900294815e-08 !
1"

#2212389
r8.722502637509006e-08 !
1"

#2949852
r1.159025355502187e-07 !
1"

#3687315
r1.442796451072980e-07 !
1"

#4424778
r1.722317782022840e-07 !
1"

#5162241
r0.0007261270786629914 !
1"

#5899704
r0.002778120926760622 !
1"

#6637167
r0.004809524832114506 !
1"

#7374630
r0.006823858585352473 !
1"

#8112093
r0.008819433441120369 !
1"

#8849556
r0.01079677440328884 !
1"

#9587019
r0.01275599769800016 !
1"

#10324482
r0.01469739327960783 !
1"

#11061945
r0.01662110632817566 !
1"

#11799408
r0.01852727351125563 !
1"

#12536871
r0.02041615547988157 !
1"

#13274334
r0.02228785202038841 !
1"

#14011797
r0.02414257392197792 !
1"

#14749260
r0.02598053503309237 !
1"

#15486723
r0.02780179496204024 !
1"

#16224186
r0.02960663395453977 !
1"

#16961649
r0.03139518726537962 !
1"

#17699112
r0.03316758024544986 !
1"

#18436575
r0.03492405445921073 !
1"

#19174038
r0.03666470343864859 !
1"

#19911501
r0.03838972045545431 !
1"

#20648964
r0.04009930382553928 !
1"

#21386427
r0.04179350962911022 !
1"

#22123890
r0.04347259451694627 !
1"

#22861353
r0.04513668461074305 !
1"

#23598816
r0.04678589338078284 !
1"

#24336279
r0.04842044352222284 !
1"

#25073742
r0.05004042111561807 !
1"

#25811205
r0.05164600149052986 !
1"

#26548668
r0.05323736681789352 !
1"

#27286131
r0.05481456807691924 !
1"

#28023594
r0.05637783861898948 !
1"

#28761057
r0.05792729457655638 !
1"

#29498520
r0.05946303743238216 !
1"

#30235983
r0.06098527165106589 !
1"

#30973446
r0.06249407590159948 !
1"

#31710909
r0.06398960909025883 !
1"

#32448372
r0.06547203880551396 !
1"

#33185835
r0.06694141186379199 !
1"

#33923298
r0.06839794128801312 !
1"

#34660761
r0.06984173502981890 !
1"

#35398224
r0.07127288492409944 !
1"

#36135687
r0.07269157997104567 !
1"

#36873150
r0.07409789328240882 !
1"

#37610613
r0.07549197003809358 !
1"

#38348076
r0.07687396439133659 !
1"

#39085539
r0.07824392252447016 !
1"

#39823002
r0.07960203845702959 !
1"

#40560465
r0.08094841346742578 !
1"

#41297928
r0.08228313088735259 !
1"

#42035391
r0.08360636583981856 !
1"

#42772854
r0.08491818651040788 !
1"

#43510317
r0.08621872566605049 !
1"

#44247780
r0.08750812720127220 !
1"

#44985243
r0.08878645043284571 !
1"

#45722706
r0.09005381983717223 !
1"

#46460169
r0.09131038490430374 !
1"

#47197632
r0.09255620284953249 !
1"

#47935095
r0.09379143570970876 !
1"

#48672558
r0.09501614696323343 !
1"

#49410021
r0.09623045793770381 !
1"

#50147484
r0.09743450190056706 !
1"

#50884947
r0.09862831745228293 !
1"

#51622410
r0.09981206847631587 !
1"

#52359873
r0.1009858431099445 !
1"

#53097336
r0.1021497103346145 !
1"

#53834799
r0.1033038201139098 !
1"

#54572262
r0.1044482315387784 !
1"

#55309725
r0.1055830554279460 !
1"

#56047188
r0.1067084152090875 !
1"

#56784651
r0.1078243470230741 !
1"

#57522114
r0.1089310009634771 !
1"

#58259577
r0.1100284593353207 !
1"

#58997040
r0.1111167847852528 !
1"

#59734503
r0.1121961161038278 !
1"

#60471966
r0.1132665083020804 !
1"

#61209429
r0.1143280626275502 !
1"

#61946892
r0.1153808934041085 !
1"

#62684355
r0.1164250344836767 !
1"

#63421818
r0.1174606233519627 !
1"

#64159281
r0.1184877368799601 !
1"

#64896744
r0.1195064319761470 !
1"

#65634207
r0.1205168371148830 !
1"

#66371670
r0.1215190035353487 !
1"

#67109133
r0.1225130237617923 !
1"

#67846596
r0.1234990037116779 !
1"

#68584059
r0.1244769750908160 !
1"

#69321522
r0.1254470638678785 !
1"

#70058985
r0.1264093418779487 !
1"

#70796448
r0.1273638608358239 !
1"

#71533911
r0.1283107396894246 !
1"

#72271374
r0.1292500261918951 !
1"

#73008837
r0.1301818049174366 !
1"

#73746300
r0.1311061740177124 !
1"

#74483763
r0.1320231632668587 !
1"

#75221226
r0.1329328886029056 !
1"

#75958689
r0.1338354047019157 !
1"

#76696152
r0.1347308080924223 !
1"

#77433615
r0.1356191228461439 !
1"

#78171078
r0.1365004689963039 !
1"

#78908541
r0.1373749019844145 !
1"

#79646004
r0.1382424759580918 !
1"

#80383467
r0.1391032922350825 !
1"

#81120930
r0.1399573893343420 !
1"

#81858393
r0.1408048542409160 !
1"

#82595856
r0.1416457574308521 !
1"

#83333319
r0.1424801347736955 !
1"

#84070782
r0.1433080917609585 !
1"

#84808245
r0.1441296803535658 !
1"

#85545708
r0.1449449499537384 !
1"

#86283171
r0.1457539944578607 !
1"

#87020634
r0.1465568498896963 !
1"

#87758097
r0.1473535922605891 !
1"

#88495560
r0.1481442986492405 !
1"

#89233023
r0.1489289905795314 !
1"

#89970486
r0.1497077690215740 !
1"

#90707949
r0.1504806827545221 !
1"

#91445412
r0.1512477769350416 !
1"

#92182875
r0.1520091386341250 !
1"

#92920338
r0.1527648016275711 !
1"

#93657801
r0.1535148355943007 !
1"

#94395264
r0.1542593121144990 !
1"

#95132727
r0.1549982516055037 !
1"

#95870190
r0.1557317467288352 !
1"

#96607653
r0.1564598432735482 !
1"

#97345116
r0.1571825825741294 !
1"

#98082579
r0.1579000454207117 !
1"

#98820042
r0.1586122631815970 !
1"

#99557505
r0.1593192997314722 !
1"

#100294968
r0.1600212214223188 !
1"

#101032431
r0.1607180474565462 !
1"

#101769894
r0.1614098626503606 !
1"

#102507357
r0.1620967097182662 !
1"

#103244820
r0.1627786260690001 !
1"

#103982283
r0.1634556861540752 !
1"

#104719746
r0.1641279191646552 !
1"

#105457209
r0.1647953830480788 !
1"

#106194672
r0.1654581388311148 !
1"

#106932135
r0.1661162040708513 !
1"

#107669598
r0.1667696555181652 !
1"

#108407061
r0.1674185327131162 !
1"

#109144524
r0.1680628692868422 !
1"

#109881987
r0.1687027334120826 !
1"

#110619450
r0.1693381515568589 !
1"

#111356913
r0.1699691759063321 !
1"

#112094376
r0.1705958617723314 !
1"

#112831839
r0.1712182254923033 !
1"

#113569302
r0.1718363362531872 !
1"

#114306765
r0.1724502300252168 !
1"

#115044228
r0.1730599357200153 !
1"

#115781691
r0.1736655055830677 !
1"

#116519154
r0.1742669555220931 !
1"

#117256617
r0.1748643506791783 !
0"

#117994080
r0.1754577424449738 !
0"

#118731543
r0.1760471520104629 !
0"

#119469006
r0.1766326242739629 !
0"

#120206469
r0.1772142131218671 !
0"

#120943932
r0.1777919392772414 !
0"

#121681395
r0.1783658611974357 !
0"

#122418858
r0.1789360019663872 !
0"

#123156321
r0.1795024055001925 !
0"

#123893784
r0.1800651200613717 !
0"

#124631247
r0.1806241599527283 !
0"

#125368710
r0.1811795845152470 !
0"

#126106173
r0.1817314259531188 !
0"

#126843636
r0.1822797096066943 !
0"

#127581099
r0.1828244899667615 !
0"

#128318562
r0.1833657889381129 !
0"

#129056025
r0.1839036470144405 !
0"

#129793488
r0.1844381092748174 !
0"

#130530951
r0.1849691895242084 !
0"

#131268414
r0.1854969424609825 !
0"

#132005877
r0.1860213985362276 !
0"

#132743340
r0.1865425811696260 !
0"

#133480803
r0.1870605411334932 !
0"

#134218266
r0.1875752992212268 !
0"

#134955729
r0.1880868928151375 !
0"

#135693192
r0.1885953640408016 !
0"

#136430655
r0.1891007262797705 !
0"

#137168118
r0.1896030300257346 !
0"

#137905581
r0.1901023041718422 !
0"

#138643044
r0.1905985705234242 !
0"

#139380507
r0.1910918765414322 !
0"

#140117970
r0.1915822421759726 !
0"

#140855433
r0.1920697021762862 !
0"

#141592896
r0.1925542961526548 !
0"

#142330359
r0.1930360373567534 !
0"

#143067822
r0.1935149726478344 !
0"

#143805285
r0.1939911296626842 !
0"

#144542748
r0.1944645288915472 !
0"

#145280211
r0.1949352146968608 !
0"

#146017674
r0.1954032060481383 !
0"

#146755137
r0.1958685347877163 !
0"

#147492600
r0.1963312372908794 !
0"

#148230063
r0.1967913252981957 !
0"

#148967526
r0.1972488405381347 !
0"

#149704989
r0.1977038023886196 !
0"

#150442452
r0.1981562443795117 !
0"

#151179915
r0.1986061735818609 !
0"

#151917378
r0.1990536304223567 !
0"

#152654841
r0.1994986318985764 !
0"

#153392304
r0.1999411941755168 !
0"

#154129767
r0.2003813502023915 !
0"

#154867230
r0.2008191108309914 !
0"

#155604693
r0.2012545046843152 !
0"

#156342156
r0.2016875551497990 !
0"

#157079619
r0.2021182740565668 !
0"

#157817082
r0.2025466988335111 !
0"

#158554545
r0.2029728483758827 !
0"

#159292008
r0.2033967410480239 !
0"

#160029471
r0.2038184113189881 !
0"

#160766934
r0.2042378729815377 !
0"

#161504397
r0.2046551539060679 !
0"

#162241860
r0.2050702821698805 !
0"

#162979323
r0.2054832657692004 !
0"

#163716786
r0.2058941407906191 !
0"

#164454249
r0.2063029245666350 !
0"

#165191712
r0.2067096329987214 !
0"

#165929175
r0.2071142968655412 !
0"

#166666638
r0.2075169278675556 !
0"

#167404101
r0.2079175504310641 !
0"

#168141564
r0.2083161896130236 !
0"

#168879027
r0.2087128521443802 !
0"

#169616490
r0.2091075704900600 !
0"

#170353953
r0.2095003604095127 !
0"

#171091416
r0.2098912361339509 !
0"

#171828879
r0.2102802262781527 !
0"

#172566342
r0.2106673423678170 !
0"

#173303805
r0.2110526077287307 !
0"

#174041268
r0.2114360454460538 !
0"

#174778731
r0.2118176569415171 !
0"

#175516194
r0.2121974571188907 !
0"

#176253657
r0.2125754394280664 !
0"

#176991120
r0.2129516029892997 !
0"

#177728583
r0.2133259817281259 !
0"

#178466046
r0.2136986112684136 !
0"

#179203509
r0.2140695410830715 !
0"

#179940972
r0.2144388146975943 !
0"

#180678435
r0.2148064540555497 !
0"

#181415898
r0.2151724986730252 !
0"

#182153361
r0.2155369744190872 !
0"

#182890824
r0.2158999063138164 !
0"

#183628287
r0.2162613325049860 !
0"

#184365750
r0.2166212760940369 !
0"

#185103213
r0.2169797606298017 !
0"

#185840676
r0.2173367758327230 !
0"

#186578139
r0.2176921853094001 !
0"

#187315602
r0.2180457050059316 !
0"

#188053065
r0.2183970039606025 !
0"

#188790528
r0.2187460451689240 !
0"

#189527991
r0.2190926485601443 !
0"

#190265454
r0.2194374686913015 !
0"

#191002917
r0.2197807809619451 !
0"

#191740380
r0.2201227140563607 !
0"

#192477843
r0.2204633283669861 !
0"

#193215306
r0.2208026851633074 !
0"

#193952769
r0.2211408168248864 !
0"

#194690232
r0.2214777381495248 !
0"

#195427695
r0.2218134739501125 !
0"

#196165158
r0.2221480403937475 !
0"

#196902621
r0.2224814650992329 !
0"

#197640084
r0.2228137812519170 !
0"

#198377547
r0.2231450108832815 !
0"

#199115010
r0.2234751800295474 !
0"

#199852473
r0.2238042991273114 !
0"

#200589936
r0.2241323544153733 !
0"

#201327399
r0.2244594023300998 !
0"

#202064862
r0.2246929765028570 !
0"

#202802325
r0.2231247978132330 !
0"

#203539788
r0.2214406567017514 !
0"

#204277251
r0.2197763204541691 !
0"

#205014714
r0.2181290339686246 !
0"

#205752177
r0.2164982702576807 !
0"

#206489640
r0.2148836365708423 !
0"

#207227103
r0.2132849548697987 !
0"

#207964566
r0.2117020381753456 !
0"

#208702029
r0.2101346166240311 !
0"

#209439492
r0.2085824143637746 !
0"

#210176955
r0.2070451824724784 !
0"

#210914418
r0.2055229425165332 !
0"

#211651881
r0.2040156257978079 !
0"

#212389344
r0.2025229946777546 !
0"

#213126807
r0.2010449586358440 !
0"

#213864270
r0.1995814051214009 !
0"

#214601733
r0.1981321597758437 !
0"

#215339196
r0.1966971839535767 !
0"

#216076659
r0.1952763142903676 !
0"

#216814122
r0.1938694133373278 !
0"

#217551585
r0.1924764461698768 !
0"

#218289048
r0.1910972038265462 !
0"

#219026511
r0.1897316035582136 !
0"

#219763974
r0.1883795444130305 !
0"

#220501437
r0.1870408492801918 !
0"

#221238900
r0.1857154634226587 !
0"

#221976363
r0.1844032243214942 !
0"

#222713826
r0.1831040115020028 !
0"

#223451289
r0.1818177193064161 !
0"

#224188752
r0.1805441821078980 !
0"

#224926215
r0.1792833626157109 !
0"

#225663678
r0.1780350498555621 !
0"

#226401141
r0.1775146953014168 !
0"

#227138604
r0.1783232518885837 !
0"

#227876067
r0.1791233498467687 !
0"

#228613530
r0.1799186997946587 !
0"

#229350993
r0.1807076078649117 !
0"

#230088456
r0.1814905126822655 !
0"

#230825919
r0.1822674650639682 !
1"

#231563382
r0.1830385613527835 !
1"

#232300845
r0.1838038515986471 !
1"

#233038308
r0.1845633815222067 !
1"

#233775771
r0.1853172379053580 !
1"

#234513234
r0.1860654546068089 !
1"

#235250697
r0.1868081016136756 !
1"

#235988160
r0.1875452499924433 !
1"

#236725623
r0.1882769137941429 !
1"

#237463086
r0.1890031906162428 !
1"

#238200549
r0.1897241265841342 !
1"

#238938012
r0.1904397631078408 !
1"

#239675475
r0.1911501797853905 !
1"

#240412938
r0.1918554076592179 !
1"

#241150401
r0.1925555102919786 !
1"

#241887864
r0.1932505514540175 !
1"

#242625327
r0.1939405516213314 !
1"

#243362790
r0.1946255952871686 !
1"

#244100253
r0.1953057243280258 !
1"

#244837716
r0.1959809763825940 !
1"

#245575179
r0.1966514250214984 !
1"

#246312642
r0.1973170990862856 !
1"

#247050105
r0.1979780566011851 !
1"

#247787568
r0.1986343579569491 !
1"

#248525031
r0.1992860206072246 !
1"

#249262494
r0.1999331216752266 !
1"

#249999957
r0.2005757000771682 !
1"

#250737420
r0.2012137899004114 !
1"

#251474883
r0.2018474591912698 !
1"

#252212346
r0.2024767350730692 !
1"

#252949809
r0.2031016711296645 !
1"

#253687272
r0.2037223239671482 !
1"

#254424735
r0.2043387097891587 !
1"

#255162198
r0.2049508957372439 !
1"

#255899661
r0.2055589087029740 !
1"

#256637124
r0.2061627632581917 !
1"

#257374587
r0.2067625073572664 !
1"

#258112050
r0.2073581617950756 !
1"

#258849513
r0.2079497875563267 !
1"

#259586976
r0.2085374584104667 !
1"

#260324439
r0.2091212121299088 !
1"

#261061902
r0.2097011295017795 !
1"

#261799365
r0.2102772567766993 !
1"

#262536828
r0.2108496319089185 !
1"

#263274291
r0.2114183223673813 !
1"

#264011754
r0.2119833621924542 !
1"

#264749217
r0.2125448073350619 !
1"

#265486680
r0.2131027179638610 !
1"

#266224143
r0.2136571239305225 !
1"

#266961606
r0.2142080589963191 !
1"

#267699069
r0.2147555013039162 !
1"

#268436532
r0.2152992458307612 !
1"

#269173995
r0.2158390160076155 !
1"

#269911458
r0.2163746530225173 !
1"

#270648921
r0.2169061451477345 !
1"

#271386384
r0.2174336342064999 !
1"

#272123847
r0.2179576263463163 !
1"

#272861310
r0.2184783106388641 !
1"

#273598773
r0.2189957976886278 !
1"

#274336236
r0.2195101608757939 !
1"

#275073699
r0.2200214807798772 !
1"

#275811162
r0.2205297900096047 !
1"

#276548625
r0.2210351321094855 !
1"

#277286088
r0.2215375538748414 !
1"

#278023551
r0.2220370781626495 !
1"

#278761014
r0.2225337674068754 !
1"

#279498477
r0.2230276661046607 !
1"

#280235940
r0.2235188093715180 !
1"

#280973403
r0.2240072442292486 !
1"

#281710866
r0.2244929852846496 !
1"

#282448329
r0.2249760346223003 !
1"

#283185792
r0.2254564109320738 !
1"

#283923255
r0.2259341077365411 !
1"

#284660718
r0.2264091543926088 !
1"

#285398181
r0.2268815657532276 !
1"

#286135644
r0.2273513534451609 !
1"

#286873107
r0.2278185532894014 !
1"

#287610570
r0.2282831773905671 !
1"

#288348033
r0.2287452361522084 !
1"

#289085496
r0.2292047690833991 !
1"

#289822959
r0.2296617753778901 !
1"

#290560422
r0.2301162750422008 !
1"

#291297885
r0.2305677268096071 !
1"

#292035348
r0.2310166444197992 !
1"

#292772811
r0.2314630585738482 !
1"

#293510274
r0.2319069668435967 !
1"

#294247737
r0.2323483820015148 !
1"

#294985200
r0.2327873260425431 !
1"

#295722663
r0.2332238039051192 !
1"

#296460126
r0.2336578554508195 !
1"

#297197589
r0.2340895057170840 !
1"

#297935052
r0.2345187982504140 !
1"

#298672515
r0.2349457558279359 !
1"

#299409978
r0.2353704348585885 !
1"

#300147441
r0.2357928718206839 !
1"

#300884904
r0.2362131039212845 !
1"

#301622367
r0.2366311847605458 !
1"

#302359830
r0.2370471496516553 !
1"

#303097293
r0.2374610512631629 !
1"

#303834756
r0.2378729387359138 !
1"

#304572219
r0.2382828509240457 !
1"

#305309682
r0.2386908436280671 !
1"

#306047145
r0.2390969456703173 !
1"

#306784608
r0.2395011657378064 !
1"

#307522071
r0.2399034996242416 !
1"

#308259534
r0.2403038987606461 !
1"

#308996997
r0.2407023100146108 !
1"

#309734460
r0.2410986841063268 !
1"

#310471923
r0.2414929762631467 !
1"

#311209386
r0.2418852034894321 !
1"

#311946849
r0.2422753842353849 !
1"

#312684312
r0.2426635779994387 !
1"

#313421775
r0.2430498472065117 !
1"

#314159238
r0.2434342258656538 !
1"

#314896701
r0.2438167411497994 !
1"

#315634164
r0.2441974430466651 !
1"

#316371627
r0.2445763177076487 !
1"

#317109090
r0.2449533246776359 !
1"

#317846553
r0.2453284539951924 !
1"

#318584016
r0.2457017995489681 !
1"

#319321479
r0.2460734863515357 !
1"

#320058942
r0.2464435920120950 !
1"

#320796405
r0.2468121809846544 !
1"

#321533868
r0.2471793090550180 !
1"

#322271331
r0.2475449917637839 !
1"

#323008794
r0.2479091528565041 !
1"

#323746257
r0.2482714675590185 !
1"

#324483720
r0.2486314145098932 !
1"

#325221183
r0.2489883378231508 !
1"

#325958646
r0.2493416331088840 !
1"

#326696109
r0.2496922120211238 !
1"

#327433572
r0.2500413636744875 !
1"

#328171035
r0.2503892935749539 !
1"

#328908498
r0.2507361920955709 !
1"

#329645961
r0.2510821201517148 !
1"

#330383424
r0.2514271249792011 !
1"

#331120887
r0.2517712869737547 !
1"

#331858350
r0.2521146793508581 !
1"

#332595813
r0.2524573001398362 !
1"

#333333276
r0.2527990756196719 !
1"

#334070739
r0.2531398928902572 !
0"

#334808202
r0.2534797055180602 !
0"

#335545665
r0.2538184925773979 !
0"

#336283128
r0.2541562451612073 !
0"

#337020591
r0.2544929687725745 !
0"

#337758054
r0.2548286570738185 !
0"

#338495517
r0.2551632732138013 !
0"

#339232980
r0.2554968182638142 !
0"

#339970443
r0.2558292523963608 !
0"

#340707906
r0.2561596341294211 !
0"

#341445369
r0.2564884883869016 !
0"

#342182832
r0.2568159718570098 !
0"

#342920295
r0.2571420353704381 !
0"

#343657758
r0.2574666352469713 !
0"

#344395221
r0.2577897620212057 !
0"

#345132684
r0.2581114389425793 !
0"

#345870147
r0.2584317051748098 !
0"

#346607610
r0.2587506388017210 !
0"

#347345073
r0.2590683199614651 !
0"

#348082536
r0.2593848328365356 !
0"

#348819999
r0.2597002744197497 !
0"

#349557462
r0.2600147359964595 !
0"

#350294925
r0.2603283192512024 !
0"

#351032388
r0.2606411241916012 !
0"

#351769851
r0.2609532211674128 !
0"

#352507314
r0.2612646328579013 !
0"

#353244777
r0.2615752899770750 !
0"

#353982240
r0.2618850279281698 !
0"

#354719703
r0.2621936374335453 !
0"

#355457166
r0.2625009164290845 !
0"

#356194629
r0.2628068171030522 !
0"

#356932092
r0.2631114461568415 !
0"

#357669555
r0.2634149340876327 !
0"

#358407018
r0.2637172707176416 !
0"

#359144481
r0.2640184349009988 !
0"

#359881944
r0.2643185175554004 !
0"

#360619407
r0.2646177382958872 !
0"

#361356870
r0.2649162507748023 !
0"

#362094333
r0.2652141543574257 !
0"

#362831796
r0.2655114931515339 !
0"

#363569259
r0.2658081202414176 !
0"

#364306722
r0.2661035106335243 !
0"

#365044185
r0.2663970263799617 !
0"

#365781648
r0.2666877517188808 !
0"

#366519111
r0.2669741762064704 !
0"

#367256574
r0.2672591213206122 !
0"

#367994037
r0.2675436019322248 !
0"

#368731500
r0.2678278013625414 !
0"

#369468963
r0.2681118284665183 !
0"

#370206426
r0.2683958038682476 !
0"

#370943889
r0.2686798657103571 !
0"

#371681352
r0.2689639433578305 !
0"

#372418815
r0.2692478354801967 !
0"

#373156278
r0.2695314008047811 !
0"

#373893741
r0.2698146275410359 !
0"

#374631204
r0.2700975534759794 !
0"

#375368667
r0.2703802223448274 !
0"

#376106130
r0.2706626615511860 !
0"

#376843593
r0.2709448275262375 !
0"

#377581056
r0.2712267269273330 !
0"

#378318519
r0.2715079635802289 !
0"

#379055982
r0.2717875358722925 !
0"

#379793445
r0.2720664156409880 !
0"

#380530908
r0.2723444594700880 !
0"

#381268371
r0.2726215456945120 !
0"

#382005834
r0.2728975729266039 !
0"

#382743297
r0.2731724956530780 !
0"

#383480760
r0.2734463295874215 !
0"

#384218223
r0.2737191384481067 !
0"

#384955686
r0.2739910451025155 !
0"

#385693149
r0.2742621992395522 !
0"

#386430612
r0.2745327834124064 !
0"

#387168075
r0.2748030087921310 !
0"

#387905538
r0.2750730790561215 !
0"

#388643001
r0.2753431323143633 !
0"

#389380464
r0.2756131641556422 !
0"

#390117927
r0.2758829839077623 !
0"

#390855390
r0.2761522469525721 !
0"

#391592853
r0.2764205750709078 !
0"

#392330316
r0.2766878801223644 !
0"

#393067779
r0.2769541616455914 !
0"

#393805242
r0.2772194042299460 !
0"

#394542705
r0.2774838410803950 !
0"

#395280168
r0.2777477664331760 !
0"

#396017631
r0.2780113360528883 !
0"

#396755094
r0.2782746067494966 !
0"

#397492557
r0.2785374027716839 !
0"

#398230020
r0.2787990312067107 !
0"

#398967483
r0.2790587698477964 !
0"

#399704946
r0.2793156189556163 !
0"

#400442409
r0.2795672139760154 !
0"

#401179872
r0.2798179955510725 !
0"

#401917335
r0.2800689578349637 !
0"

#402654798
r0.2803204318402500 !
0"

#403392261
r0.2805726770751352 !
0"

#404129724
r0.2808259608642107 !
0"

#404867187
r0.2810800543019512 !
0"

#405604650
r0.2813345888767014 !
0"

#406342113
r0.2815893631521994 !
0"

#407079576
r0.2818443480961833 !
0"

#407817039
r0.2820995499534971 !
0"

#408554502
r0.2823549590952675 !
0"

#409291965
r0.2826104960783138 !
0"

#410029428
r0.2828660836648701 !
0"

#410766891
r0.2831212703532507 !
0"

#411504354
r0.2833747423784034 !
0"

#412241817
r0.2836276421740615 !
0"

#412979280
r0.2838797880814018 !
0"

#413716743
r0.2841310344119056 !
0"

#414454206
r0.2843812998543082 !
0"

#415191669
r0.2846305941819708 !
0"

#415929132
r0.2848790197233326 !
0"

#416666595
r0.2851267730965671 !
0"

#417404058
r0.2853741043945981 !
0"

#418141521
r0.2856213074300087 !
1"

#418878984
r0.2858686924747711 !
1"

#419616447
r0.2861165320764579 !
1"

#420353910
r0.2863649415116110 !
1"

#421091373
r0.2866137862470498 !
1"

#421828836
r0.2868626406294277 !
1"

#422566299
r0.2871108681159110 !
1"

#423303762
r0.2873578502267553 !
1"

#424041225
r0.2876032808407939 !
1"

#424778688
r0.2878475240299362 !
1"

#425516151
r0.2880911443293663 !
1"

#426253614
r0.2883344298662079 !
1"

#426991077
r0.2885774860906254 !
1"

#427728540
r0.2888200242988800 !
1"

#428466003
r0.2890612180043347 !
1"

#429203466
r0.2893004045989765 !
1"

#429940929
r0.2895352246981987 !
1"

#430678392
r0.2897664874915013 !
1"

#431415855
r0.2899983715494809 !
1"

#432153318
r0.2902313703397809 !
1"

#432890781
r0.2904657704012195 !
1"

#433628244
r0.2907018524754822 !
1"

#434365707
r0.2909390721182382 !
1"

#435103170
r0.2911769344213979 !
1"

#435840633
r0.2914152372817572 !
1"

#436578096
r0.2916539685471491 !
1"

#437315559
r0.2918931227723837 !
1"

#438053022
r0.2921326532675048 !
1"

#438790485
r0.2923723613870763 !
1"

#439527948
r0.2926121982663910 !
1"

#440265411
r0.2928500902867829 !
1"

#441002874
r0.2930875292492768 !
1"

#441740337
r0.2933244271023700 !
1"

#442477800
r0.2935606708058651 !
1"

#443215263
r0.2937961879236085 !
1"

#443952726
r0.2940309976275664 !
1"

#444690189
r0.2942652241660136 !
1"

#445427652
r0.2944990982030189 !
1"

#446165115
r0.2947329226481625 !
1"

#446902578
r0.2949670461610745 !
1"

#447640041
r0.2952018034077405 !
1"

#448377504
r0.2954373821530861 !
1"

#449114967
r0.2956736692122000 !
1"

#449852430
r0.2959101859782448 !
1"

#450589893
r0.2961459829278187 !
1"

#451327356
r0.2963797569528340 !
1"

#452064819
r0.2966114547645963 !
1"

#452802282
r0.2968422543722217 !
1"

#453539745
r0.2970728681864767 !
1"

#454277208
r0.2973035624118681 !
1"

#455014671
r0.2975339953839818 !
1"

#455752134
r0.2977632301812479 !
1"

#456489597
r0.2979904802249264 !
1"

#457227060
r0.2982124496011574 !
1"

#457964523
r0.2984323646697588 !
1"

#458701986
r0.2986532426319510 !
1"

#459439449
r0.2988756808158082 !
1"

#460176912
r0.2991001465818063 !
1"

#460914375
r0.2993261781081784 !
1"

#461651838
r0.2995530179130157 !
1"

#462389301
r0.2997804419196077 !
1"

#463126764
r0.3000084089642305 !
1"

#463864227
r0.3002369430985461 !
1"

#464601690
r0.3004660178140935 !
1"

#465339153
r0.3006954453001114 !
1"

#466076616
r0.3009250503779277 !
1"

#466814079
r0.3011529077792680 !
1"

#467551542
r0.3013806769216438 !
1"

#468289005
r0.3016082033010160 !
1"

#469026468
r0.3018353567455317 !
1"

#469763931
r0.3020620218625876 !
1"

#470501394
r0.3022881651823565 !
1"

#471238857
r0.3025138743253706 !
1"

#471976320
r0.3027393692795988 !
1"

#472713783
r0.3029649779643077 !
1"

#473451246
r0.3031910787551806 !
1"

#474188709
r0.3034179507494280 !
1"

#474926172
r0.3036456032007135 !
1"

#475663635
r0.3038736824563740 !
1"

#476401098
r0.3041009714740807 !
1"

#477138561
r0.3043256791871123 !
1"

#477876024
r0.3045484419863322 !
1"

#478613487
r0.3047706692784017 !
1"

#479350950
r0.3046819942983248 !
1"

#480088413
r0.3029133444432892 !
1"

#480825876
r0.3011530617842361 !
1"

#481563339
r0.2994091989343267 !
1"

#482300802
r0.2976795719774570 !
1"

#483038265
r0.2959615128379878 !
1"

#483775728
r0.2942615152714072 !
1"

#484513191
r0.2925800110362519 !
1"

#485250654
r0.2909171895601648 !
1"

#485988117
r0.2892730170522789 !
1"

#486725580
r0.2876464984883613 !
1"

#487463043
r0.2860370446637558 !
1"

#488200506
r0.2844443540687309 !
1"

#488937969
r0.2828681715464791 !
1"

#489675432
r0.2813083960755496 !
1"

#490412895
r0.2797647249056734 !
1"

#491150358
r0.2782368696263171 !
1"

#491887821
r0.2767246285760139 !
1"

#492625284
r0.2752258956149793 !
1"

#493362747
r0.2737417940225770 !
1"

#494100210
r0.2722720956159357 !
1"

#494837673
r0.2708165328356387 !
1"

#495575136
r0.2693748868436186 !
0"

#496312599
r0.2679470205229320 !
0"

#497050062
r0.2665329790513102 !
0"

#497787525
r0.2651327874570392 !
0"

#498524988
r0.2637464628187497 !
0"

#499262451
r0.2623741478600835 !
0"

#499999914
r0.2610158043821610 !
0"

#500737377
r0.2596714480556868 !
0"

#501474840
r0.2583410085628619 !
0"

#502212303
r0.2570241106304941 !
0"

#502949766
r0.2557203265143337 !
0"

#503687229
r0.2544291417094761 !
0"

#504424692
r0.2531502395657444 !
0"

#505162155
r0.2518836768803259 !
0"

#505899618
r0.2506294577036961 !
0"

#506637081
r0.2493876059885918 !
0"

#507374544
r0.2481578948484195 !
0"

#508112007
r0.2469400503567341 !
0"

#508849470
r0.2457341730297310 !
0"

#509586933
r0.2445402947237178 !
0"

#510324396
r0.2433583663238947 !
0"

#511061859
r0.2421884132143287 !
0"

#511799322
r0.2410302838700676 !
0"

#512536785
r0.2398837597056432 !
0"

#513274248
r0.2387483984931089 !
0"

#514011711
r0.2376234832183120 !
0"

#514749174
r0.2365085525366458 !
0"

#515486637
r0.2354033042923360 !
0"

#516224100
r0.2343076462488981 !
0"

#516961563
r0.2332222995597155 !
0"

#517699026
r0.2321478239947221 !
0"

#518436489
r0.2310842628144070 !
0"

#519173952
r0.2300315142171293 !
0"

#519911415
r0.2289895707374468 !
0"

#520648878
r0.2279582355775812 !
0"

#521386341
r0.2276472990723900 !
0"

#522123804
r0.2286530299324454 !
0"

#522861267
r0.2296478624213327 !
0"

#523598730
r0.2306360382895912 !
0"

#524336193
r0.2316159976172182 !
0"

#525073656
r0.2325882427135183 !
0"

#525811119
r0.2335528483925534 !
0"

#526548582
r0.2345099393923852 !
0"

#527286045
r0.2354595619823180 !
0"

#528023508
r0.2364017557968769 !
0"

#528760971
r0.2373366206683134 !
0"

#529498434
r0.2382641953344593 !
0"

#530235897
r0.2391845701033930 !
0"

#530973360
r0.2400978396026875 !
0"

#531710823
r0.2410040330656283 !
0"

#532448286
r0.2419032547381099 !
0"

#533185749
r0.2427955684291873 !
0"

#533923212
r0.2436810234292801 !
0"

#534660675
r0.2445594804731770 !
0"

#535398138
r0.2454305821697091 !
0"

#536135601
r0.2462949237576786 !
0"

#536873064
r0.2471525536869070 !
0"

#537610527
r0.2480034610068035 !
0"

#538347990
r0.2488477256070972 !
0"

#539085453
r0.2496853778577715 !
0"

#539822916
r0.2505164520500658 !
0"

#540560379
r0.2513410427765724 !
0"

#541297842
r0.2521591955216942 !
0"

#542035305
r0.2529710044960364 !
0"

#542772768
r0.2537765745437295 !
0"

#543510231
r0.2545759591385037 !
0"

#544247694
r0.2553692967713132 !
0"

#544985157
r0.2561566816874744 !
0"

