problem/backup/a_pll_spice/spc_2_c/cpp+h_c++/vco_SPICE_sysC.vcd
$date
    Thu Nov  1 14:44:32 2012
$end

$version
                 SystemC AMS 1.0 --- 1.0Beta2 --- unknown release date
$end

$timescale
      1 fs
$end

$scope module SystemC_AMS $end

$var real 1 !  Vc $end
$var wire 1 "  vco_out $end

$upscope $end

$enddefinitions $end


#0
r0.000000000000000 !
0"

#737463
r0.0001474926000000000 !
1"

#1474926
r0.0002949852000000000 !

#2212389
r0.0004424778000000000 !

#2949852
r0.0005899704000000000 !

#3687315
r0.0007374630000000001 !

#4424778
r0.0008849556000000001 !

#5162241
r0.001032448200000000 !

#5899704
r0.001179940800000000 !

#6637167
r0.001327433400000000 !

#7374630
r0.001474926000000000 !

#8112093
r0.001622418600000000 !

#8849556
r0.001769911200000000 !

#9587019
r0.001917403800000000 !

#10324482
r0.002064896400000000 !

#11061945
r0.002212389000000000 !

#11799408
r0.002359881600000000 !

#12536871
r0.002507374200000000 !

#13274334
r0.002654866800000000 !

#14011797
r0.002802359400000000 !

#14749260
r0.002949852000000000 !

#15486723
r0.003097344600000000 !

#16224186
r0.003244837200000000 !

#16961649
r0.003392329800000000 !

#17699112
r0.003539822400000000 !

#18436575
r0.003687315000000000 !

#19174038
r0.003834807600000000 !

#19911501
r0.003982300200000000 !

#20648964
r0.004129792800000000 !

#21386427
r0.004277285400000001 !

#22123890
r0.004424778000000001 !

#22861353
r0.004572270600000000 !

#23598816
r0.004719763200000000 !

#24336279
r0.004867255800000000 !

#25073742
r0.005014748400000000 !

#25811205
r0.005162241000000001 !

#26548668
r0.005309733600000001 !

#27286131
r0.005457226200000001 !

#28023594
r0.005604718800000000 !

#28761057
r0.005752211400000000 !

#29498520
r0.005899704000000000 !

#30235983
r0.006047196600000001 !

#30973446
r0.006194689200000001 !

#31710909
r0.006342181800000001 !

#32448372
r0.006489674400000000 !

#33185835
r0.006637167000000000 !

#33923298
r0.006784659600000000 !

#34660761
r0.006932152200000001 !

#35398224
r0.007079644800000001 !

#36135687
r0.007227137400000001 !

#36873150
r0.007374630000000001 !

#37610613
r0.007522122600000000 !

#38348076
r0.007669615200000000 !

#39085539
r0.007817107800000000 !

#39823002
r0.007964600400000001 !

#40560465
r0.008112093000000001 !

#41297928
r0.008259585600000001 !

#42035391
r0.008407078200000001 !

#42772854
r0.008554570800000001 !

#43510317
r0.008702063400000001 !

#44247780
r0.008849556000000001 !

#44985243
r0.008997048600000000 !

#45722706
r0.009144541200000000 !

#46460169
r0.009292033800000000 !

#47197632
r0.009439526400000000 !

#47935095
r0.009587019000000000 !

#48672558
r0.009734511600000001 !

#49410021
r0.009882004200000001 !

#50147484
r0.01002949680000000 !

#50884947
r0.01017698940000000 !

#51622410
r0.01032448200000000 !

#52359873
r0.01047197460000000 !

#53097336
r0.01061946720000000 !

#53834799
r0.01076695980000000 !

#54572262
r0.01091445240000000 !

#55309725
r0.01106194500000000 !

#56047188
r0.01120943760000000 !

#56784651
r0.01135693020000000 !

#57522114
r0.01150442280000000 !

#58259577
r0.01165191540000000 !

#58997040
r0.01179940800000000 !

#59734503
r0.01194690060000000 !

#60471966
r0.01209439320000000 !

#61209429
r0.01224188580000000 !

#61946892
r0.01238937840000000 !

#62684355
r0.01253687100000000 !

#63421818
r0.01268436360000000 !

#64159281
r0.01283185620000000 !

#64896744
r0.01297934880000000 !

#65634207
r0.01312684140000000 !

#66371670
r0.01327433400000000 !

#67109133
r0.01342182660000000 !

#67846596
r0.01356931920000000 !

#68584059
r0.01371681180000000 !

#69321522
r0.01386430440000000 !

#70058985
r0.01401179700000000 !

#70796448
r0.01415928960000000 !

#71533911
r0.01430678220000000 !

#72271374
r0.01445427480000000 !

#73008837
r0.01460176740000000 !

#73746300
r0.01474926000000000 !

#74483763
r0.01489675260000000 !

#75221226
r0.01504424520000000 !

#75958689
r0.01519173780000000 !

#76696152
r0.01533923040000000 !

#77433615
r0.01548672300000000 !

#78171078
r0.01563421560000000 !

#78908541
r0.01578170820000000 !

#79646004
r0.01592920080000000 !

#80383467
r0.01607669340000000 !

#81120930
r0.01622418600000000 !

#81858393
r0.01637167860000000 !

#82595856
r0.01651917120000000 !

#83333319
r0.01666666380000000 !

#84070782
r0.01681415640000000 !

#84808245
r0.01696164900000000 !

#85545708
r0.01710914160000000 !

#86283171
r0.01725663420000000 !

#87020634
r0.01740412680000000 !

#87758097
r0.01755161940000000 !

#88495560
r0.01769911200000000 !

#89233023
r0.01784660460000000 !

#89970486
r0.01799409720000000 !

#90707949
r0.01814158980000000 !

#91445412
r0.01828908240000000 !

#92182875
r0.01843657500000000 !

#92920338
r0.01858406760000000 !

#93657801
r0.01873156020000000 !

#94395264
r0.01887905280000000 !

#95132727
r0.01902654540000000 !

#95870190
r0.01917403800000000 !

#96607653
r0.01932153060000000 !

#97345116
r0.01946902320000000 !

#98082579
r0.01961651580000000 !

#98820042
r0.01976400840000000 !

#99557505
r0.01991150100000000 !

#100294968
r0.02005899360000000 !

#101032431
r0.02020648620000000 !

#101769894
r0.02035397880000000 !

#102507357
r0.02050147140000000 !

#103244820
r0.02064896400000000 !

#103982283
r0.02079645660000000 !

#104719746
r0.02094394920000000 !

#105457209
r0.02109144180000000 !

#106194672
r0.02123893440000000 !

#106932135
r0.02138642700000000 !

#107669598
r0.02153391960000000 !

#108407061
r0.02168141220000000 !

#109144524
r0.02182890480000000 !

#109881987
r0.02197639740000000 !

#110619450
r0.02212389000000000 !

#111356913
r0.02227138260000000 !

#112094376
r0.02241887520000000 !

#112831839
r0.02256636780000000 !

#113569302
r0.02271386040000000 !

#114306765
r0.02286135300000000 !

#115044228
r0.02300884560000000 !

#115781691
r0.02315633820000000 !

#116519154
r0.02330383080000000 !

#117256617
r0.02345132340000000 !

#117994080
r0.02359881600000000 !

#118731543
r0.02374630860000000 !

#119469006
r0.02389380120000000 !

#120206469
r0.02404129380000000 !

#120943932
r0.02418878640000000 !

#121681395
r0.02433627900000000 !

#122418858
r0.02448377160000000 !

#123156321
r0.02463126420000000 !

#123893784
r0.02477875680000000 !

#124631247
r0.02492624940000000 !

#125368710
r0.02507374200000000 !

#126106173
r0.02522123460000000 !

#126843636
r0.02536872720000000 !

#127581099
r0.02551621980000000 !

#128318562
r0.02566371240000000 !

#129056025
r0.02581120500000000 !

#129793488
r0.02595869760000000 !

#130530951
r0.02610619020000000 !

#131268414
r0.02625368280000000 !

#132005877
r0.02640117540000000 !

#132743340
r0.02654866800000000 !

#133480803
r0.02669616060000000 !

#134218266
r0.02684365320000000 !

#134955729
r0.02699114580000000 !

#135693192
r0.02713863840000000 !

#136430655
r0.02728613100000000 !

#137168118
r0.02743362360000000 !

#137905581
r0.02758111620000000 !

#138643044
r0.02772860880000000 !

#139380507
r0.02787610140000000 !

#140117970
r0.02802359400000000 !

#140855433
r0.02817108660000000 !

#141592896
r0.02831857920000000 !

#142330359
r0.02846607180000000 !

#143067822
r0.02861356440000000 !

#143805285
r0.02876105700000000 !

#144542748
r0.02890854960000000 !

#145280211
r0.02905604220000000 !

#146017674
r0.02920353480000000 !

#146755137
r0.02935102740000000 !

#147492600
r0.02949852000000000 !

#148230063
r0.02964601260000000 !

#148967526
r0.02979350520000000 !

#149704989
r0.02994099780000000 !

#150442452
r0.03008849040000000 !

#151179915
r0.03023598300000000 !

#151917378
r0.03038347560000000 !

#152654841
r0.03053096820000000 !

#153392304
r0.03067846080000000 !

#154129767
r0.03082595340000000 !

#154867230
r0.03097344600000000 !

#155604693
r0.03112093860000000 !

#156342156
r0.03126843120000000 !

#157079619
r0.03141592380000000 !

#157817082
r0.03156341640000000 !

#158554545
r0.03171090900000000 !

#159292008
r0.03185840160000000 !

#160029471
r0.03200589420000000 !

#160766934
r0.03215338680000000 !

#161504397
r0.03230087940000000 !

#162241860
r0.03244837200000000 !

#162979323
r0.03259586460000000 !

#163716786
r0.03274335720000000 !

#164454249
r0.03289084980000000 !

#165191712
r0.03303834240000000 !

#165929175
r0.03318583500000000 !

#166666638
r0.03333332760000000 !

#167404101
r0.03348082020000000 !

#168141564
r0.03362831280000000 !

#168879027
r0.03377580540000000 !

#169616490
r0.03392329800000000 !

#170353953
r0.03407079060000000 !

#171091416
r0.03421828320000000 !

#171828879
r0.03436577580000000 !

#172566342
r0.03451326840000001 !

#173303805
r0.03466076100000001 !

#174041268
r0.03480825360000001 !

#174778731
r0.03495574620000001 !

#175516194
r0.03510323880000001 !

#176253657
r0.03525073140000001 !

#176991120
r0.03539822400000001 !

#177728583
r0.03554571660000001 !

#178466046
r0.03569320920000001 !

#179203509
r0.03584070180000000 !

#179940972
r0.03598819440000000 !

#180678435
r0.03613568700000000 !

#181415898
r0.03628317960000000 !

#182153361
r0.03643067220000000 !

#182890824
r0.03657816480000000 !

#183628287
r0.03672565740000000 !

#184365750
r0.03687315000000000 !

#185103213
r0.03702064260000000 !

#185840676
r0.03716813520000000 !

#186578139
r0.03731562780000000 !

#187315602
r0.03746312040000000 !

#188053065
r0.03761061300000000 !

#188790528
r0.03775810560000000 !

#189527991
r0.03790559820000000 !

#190265454
r0.03805309080000000 !

#191002917
r0.03820058340000000 !

#191740380
r0.03834807600000000 !

#192477843
r0.03849556860000000 !

#193215306
r0.03864306120000000 !

#193952769
r0.03879055380000000 !

#194690232
r0.03893804640000000 !

#195427695
r0.03908553900000000 !

#196165158
r0.03923303160000000 !

#196902621
r0.03938052420000000 !

#197640084
r0.03952801680000000 !

#198377547
r0.03967550940000000 !

#199115010
r0.03982300200000000 !

#199852473
r0.03997049460000000 !

#200589936
r0.04011798720000000 !

#201327399
r0.04026547980000000 !

#202064862
r0.04041297240000000 !

#202802325
r0.04056046500000000 !

#203539788
r0.04070795760000000 !

#204277251
r0.04085545020000000 !

#205014714
r0.04100294280000000 !

#205752177
r0.04115043540000000 !

#206489640
r0.04129792800000000 !

#207227103
r0.04144542060000000 !

#207964566
r0.04159291320000000 !

#208702029
r0.04174040580000000 !

#209439492
r0.04188789840000001 !

#210176955
r0.04203539100000001 !

#210914418
r0.04218288360000001 !

#211651881
r0.04233037620000001 !

#212389344
r0.04247786880000001 !

#213126807
r0.04262536140000001 !

#213864270
r0.04277285400000001 !

#214601733
r0.04292034660000001 !

#215339196
r0.04306783920000001 !

#216076659
r0.04321533180000001 !

#216814122
r0.04336282440000001 !

#217551585
r0.04351031700000001 !

#218289048
r0.04365780960000001 !

#219026511
r0.04380530220000000 !

#219763974
r0.04395279480000000 !

#220501437
r0.04410028740000000 !

#221238900
r0.04424778000000000 !

#221976363
r0.04439527260000000 !

#222713826
r0.04454276520000000 !

#223451289
r0.04469025780000000 !

#224188752
r0.04483775040000000 !

#224926215
r0.04498524300000000 !

#225663678
r0.04513273560000000 !

#226401141
r0.04528022820000000 !

#227138604
r0.04542772080000000 !

#227876067
r0.04557521340000000 !

#228613530
r0.04572270600000000 !

#229350993
r0.04587019860000000 !

#230088456
r0.04601769120000000 !

#230825919
r0.04616518380000000 !

#231563382
r0.04631267640000000 !

#232300845
r0.04646016900000000 !

#233038308
r0.04660766160000000 !

#233775771
r0.04675515420000000 !

#234513234
r0.04690264680000000 !

#235250697
r0.04705013940000000 !

#235988160
r0.04719763200000000 !

#236725623
r0.04734512460000000 !

#237463086
r0.04749261720000000 !

#238200549
r0.04764010980000000 !

#238938012
r0.04778760240000000 !

#239675475
r0.04793509500000000 !

#240412938
r0.04808258760000000 !

#241150401
r0.04823008020000000 !

#241887864
r0.04837757280000000 !

#242625327
r0.04852506540000000 !

#243362790
r0.04867255800000000 !

#244100253
r0.04882005060000000 !

#244837716
r0.04896754320000000 !

#245575179
r0.04911503580000001 !

#246312642
r0.04926252840000001 !

#247050105
r0.04941002100000001 !

#247787568
r0.04955751360000001 !

#248525031
r0.04970500620000001 !

#249262494
r0.04985249880000001 !

#249999957
r0.04999999140000001 !

#250737420
r0.05014748400000001 !

#251474883
r0.05029497660000001 !

#252212346
r0.05044246920000001 !

#252949809
r0.05058996180000001 !

#253687272
r0.05073745440000001 !

#254424735
r0.05088494700000001 !

#255162198
r0.05103243960000001 !

#255899661
r0.05117993220000001 !

#256637124
r0.05132742480000001 !

#257374587
r0.05147491740000001 !

#258112050
r0.05162241000000001 !

#258849513
r0.05176990260000000 !

#259586976
r0.05191739520000000 !

#260324439
r0.05206488780000000 !

#261061902
r0.05221238040000000 !

#261799365
r0.05235987300000000 !

#262536828
r0.05250736560000000 !

#263274291
r0.05265485820000000 !

#264011754
r0.05280235080000000 !

#264749217
r0.05294984340000000 !

#265486680
r0.05309733600000000 !

#266224143
r0.05324482860000000 !

#266961606
r0.05339232120000000 !

#267699069
r0.05353981380000000 !

#268436532
r0.05368730640000000 !

#269173995
r0.05383479900000000 !

#269911458
r0.05398229160000000 !

#270648921
r0.05412978420000000 !

#271386384
r0.05427727680000000 !

#272123847
r0.05442476940000000 !

#272861310
r0.05457226200000000 !

#273598773
r0.05471975460000000 !

#274336236
r0.05486724720000000 !

#275073699
r0.05501473980000000 !

#275811162
r0.05516223240000000 !

#276548625
r0.05530972500000000 !

#277286088
r0.05545721760000000 !

#278023551
r0.05560471020000000 !

#278761014
r0.05575220280000000 !

#279498477
r0.05589969540000000 !

#280235940
r0.05604718800000000 !

#280973403
r0.05619468060000000 !

#281710866
r0.05634217320000001 !

#282448329
r0.05648966580000001 !

#283185792
r0.05663715840000001 !

#283923255
r0.05678465100000001 !

#284660718
r0.05693214360000001 !

#285398181
r0.05707963620000001 !

#286135644
r0.05722712880000001 !

#286873107
r0.05737462140000001 !

#287610570
r0.05752211400000001 !

#288348033
r0.05766960660000001 !

#289085496
r0.05781709920000001 !

#289822959
r0.05796459180000001 !

#290560422
r0.05811208440000001 !

#291297885
r0.05825957700000001 !

#292035348
r0.05840706960000001 !

#292772811
r0.05855456220000001 !

#293510274
r0.05870205480000001 !

#294247737
r0.05884954740000001 !

#294985200
r0.05899704000000001 !

#295722663
r0.05914453260000001 !

#296460126
r0.05929202520000001 !

#297197589
r0.05943951780000001 !

#297935052
r0.05958701040000001 !

#298672515
r0.05973450300000000 !

#299409978
r0.05988199560000000 !

#300147441
r0.06002948820000000 !

#300884904
r0.06017698080000000 !

#301622367
r0.06032447340000000 !

#302359830
r0.06047196600000000 !

#303097293
r0.06061945860000000 !

#303834756
r0.06076695120000000 !

#304572219
r0.06091444380000000 !

#305309682
r0.06106193640000000 !

#306047145
r0.06120942900000000 !

#306784608
r0.06135692160000000 !

#307522071
r0.06150441420000000 !

#308259534
r0.06165190680000000 !

#308996997
r0.06179939940000000 !

#309734460
r0.06194689200000000 !

#310471923
r0.06209438460000000 !

#311209386
r0.06224187720000000 !

#311946849
r0.06238936980000000 !

#312684312
r0.06253686240000000 !

#313421775
r0.06268435500000001 !

#314159238
r0.06283184760000000 !

#314896701
r0.06297934020000001 !

#315634164
r0.06312683280000000 !

#316371627
r0.06327432540000001 !

#317109090
r0.06342181800000000 !

#317846553
r0.06356931060000001 !

#318584016
r0.06371680320000001 !

#319321479
r0.06386429580000000 !

#320058942
r0.06401178840000001 !

#320796405
r0.06415928100000000 !

#321533868
r0.06430677360000001 !

#322271331
r0.06445426620000000 !

#323008794
r0.06460175880000001 !

#323746257
r0.06474925140000000 !

#324483720
r0.06489674400000001 !

#325221183
r0.06504423660000000 !

#325958646
r0.06519172920000001 !

#326696109
r0.06533922180000000 !

#327433572
r0.06548671440000001 !

#328171035
r0.06563420700000000 !

#328908498
r0.06578169960000001 !

#329645961
r0.06592919220000000 !

#330383424
r0.06607668480000001 !

#331120887
r0.06622417740000000 !

#331858350
r0.06637167000000001 !

#332595813
r0.06651916260000000 !

#333333276
r0.06666665520000001 !

#334070739
r0.06681414780000000 !

#334808202
r0.06696164040000001 !

#335545665
r0.06710913300000000 !

#336283128
r0.06725662560000001 !

#337020591
r0.06740411820000000 !

#337758054
r0.06755161080000001 !

#338495517
r0.06769910340000000 !

#339232980
r0.06784659600000001 !

#339970443
r0.06799408860000000 !

#340707906
r0.06814158120000001 !
0"

#341445369
r0.06828907380000000 !

#342182832
r0.06843656640000001 !

#342920295
r0.06858405900000000 !

#343657758
r0.06873155160000001 !

#344395221
r0.06887904420000000 !

#345132684
r0.06902653680000001 !

#345870147
r0.06917402940000000 !

#346607610
r0.06932152200000001 !

#347345073
r0.06946901460000000 !

#348082536
r0.06961650720000001 !

#348819999
r0.06976399980000000 !

#349557462
r0.06991149240000001 !

#350294925
r0.07005898500000000 !

#351032388
r0.07020647760000001 !

#351769851
r0.07035397020000000 !

#352507314
r0.07050146280000001 !

#353244777
r0.07064895540000000 !

#353982240
r0.07079644800000001 !

#354719703
r0.07094394060000001 !

#355457166
r0.07109143320000001 !

#356194629
r0.07123892580000001 !

#356932092
r0.07138641840000001 !

#357669555
r0.07153391100000001 !

#358407018
r0.07168140360000000 !

#359144481
r0.07182889620000001 !

#359881944
r0.07197638880000000 !

#360619407
r0.07212388140000001 !

#361356870
r0.07227137400000000 !

#362094333
r0.07241886660000001 !

#362831796
r0.07256635920000000 !

#363569259
r0.07271385180000001 !

#364306722
r0.07286134440000000 !

#365044185
r0.07300883700000001 !

#365781648
r0.07315632960000000 !

#366519111
r0.07330382220000001 !

#367256574
r0.07345131480000000 !

#367994037
r0.07359880740000001 !

#368731500
r0.07374630000000000 !

#369468963
r0.07389379260000001 !

#370206426
r0.07404128520000000 !

#370943889
r0.07418877780000001 !

#371681352
r0.07433627040000000 !

#372418815
r0.07448376300000001 !

#373156278
r0.07463125560000000 !

#373893741
r0.07477874820000001 !

#374631204
r0.07492624080000000 !

#375368667
r0.07507373340000001 !

#376106130
r0.07522122600000000 !

#376843593
r0.07536871860000001 !

#377581056
r0.07551621120000000 !

#378318519
r0.07566370380000001 !

#379055982
r0.07581119640000000 !

#379793445
r0.07595868900000001 !

#380530908
r0.07610618160000000 !

#381268371
r0.07625367420000001 !

#382005834
r0.07640116680000000 !

#382743297
r0.07654865940000001 !

#383480760
r0.07669615200000000 !

#384218223
r0.07684364460000001 !

#384955686
r0.07699113720000000 !

#385693149
r0.07713862980000001 !

#386430612
r0.07728612240000000 !

#387168075
r0.07743361500000001 !

#387905538
r0.07758110760000000 !

#388643001
r0.07772860020000001 !

#389380464
r0.07787609280000000 !

#390117927
r0.07802358540000001 !

#390855390
r0.07817107800000000 !

#391592853
r0.07831857060000001 !

#392330316
r0.07846606320000001 !

#393067779
r0.07861355580000001 !

#393805242
r0.07876104840000001 !

#394542705
r0.07890854100000001 !

#395280168
r0.07905603360000001 !

#396017631
r0.07920352620000001 !

#396755094
r0.07935101880000001 !

#397492557
r0.07949851140000000 !

#398230020
r0.07964600400000001 !

#398967483
r0.07979349660000000 !

#399704946
r0.07994098920000001 !

#400442409
r0.08008848180000000 !

#401179872
r0.08023597440000001 !

#401917335
r0.08038346700000000 !

#402654798
r0.08053095960000001 !

#403392261
r0.08067845220000000 !

#404129724
r0.08082594480000001 !

#404867187
r0.08097343740000000 !

#405604650
r0.08112093000000001 !

#406342113
r0.08126842260000000 !

#407079576
r0.08141591520000001 !

#407817039
r0.08156340780000000 !

#408554502
r0.08171090040000001 !

#409291965
r0.08185839300000000 !

#410029428
r0.08200588560000001 !

#410766891
r0.08215337820000000 !

#411504354
r0.08230087080000001 !

#412241817
r0.08244836340000000 !

#412979280
r0.08259585600000001 !

#413716743
r0.08274334860000000 !

#414454206
r0.08289084120000001 !

#415191669
r0.08303833380000000 !

#415929132
r0.08318582640000001 !

#416666595
r0.08333331900000000 !

#417404058
r0.08348081160000001 !

#418141521
r0.08362830420000000 !

#418878984
r0.08377579680000001 !

#419616447
r0.08392328940000000 !

#420353910
r0.08407078200000001 !

#421091373
r0.08421827460000000 !

#421828836
r0.08436576720000001 !

#422566299
r0.08451325980000000 !

#423303762
r0.08466075240000001 !

#424041225
r0.08480824500000000 !

#424778688
r0.08495573760000001 !

#425516151
r0.08510323020000000 !

#426253614
r0.08525072280000001 !

#426991077
r0.08539821540000000 !

#427728540
r0.08554570800000001 !

#428466003
r0.08569320060000001 !

#429203466
r0.08584069320000001 !

#429940929
r0.08598818580000001 !

#430678392
r0.08613567840000001 !

#431415855
r0.08628317100000001 !

#432153318
r0.08643066360000001 !

#432890781
r0.08657815620000001 !

#433628244
r0.08672564880000001 !

#434365707
r0.08687314140000001 !

#435103170
r0.08702063400000001 !

#435840633
r0.08716812660000001 !

#436578096
r0.08731561920000001 !

#437315559
r0.08746311180000001 !

#438053022
r0.08761060440000000 !

#438790485
r0.08775809700000001 !

#439527948
r0.08790558960000000 !

#440265411
r0.08805308220000001 !

#441002874
r0.08820057480000000 !

#441740337
r0.08834806740000001 !

#442477800
r0.08849556000000000 !

#443215263
r0.08864305260000001 !

#443952726
r0.08879054520000000 !

#444690189
r0.08893803780000001 !

#445427652
r0.08908553040000000 !

#446165115
r0.08923302300000001 !

#446902578
r0.08938051560000000 !

#447640041
r0.08952800820000001 !

#448377504
r0.08967550080000000 !

#449114967
r0.08982299340000001 !

#449852430
r0.08997048600000000 !

#450589893
r0.09011797860000001 !

#451327356
r0.09026547120000000 !

#452064819
r0.09041296380000001 !

#452802282
r0.09056045640000000 !

#453539745
r0.09070794900000001 !

#454277208
r0.09085544160000000 !

#455014671
r0.09100293420000001 !

#455752134
r0.09115042680000000 !

#456489597
r0.09129791940000001 !

#457227060
r0.09144541200000000 !

#457964523
r0.09159290460000001 !

#458701986
r0.09174039720000000 !

#459439449
r0.09188788980000001 !

#460176912
r0.09203538240000000 !

#460914375
r0.09218287500000001 !

#461651838
r0.09233036760000000 !

#462389301
r0.09247786020000001 !

#463126764
r0.09262535280000000 !

#463864227
r0.09277284540000001 !

#464601690
r0.09292033800000001 !

#465339153
r0.09306783060000001 !

#466076616
r0.09321532320000001 !

#466814079
r0.09336281580000001 !

#467551542
r0.09351030840000001 !

#468289005
r0.09365780100000001 !

#469026468
r0.09380529360000001 !

#469763931
r0.09395278620000001 !

#470501394
r0.09410027880000001 !

#471238857
r0.09424777140000001 !

#471976320
r0.09439526400000001 !

#472713783
r0.09454275660000001 !

#473451246
r0.09469024920000001 !

#474188709
r0.09483774180000001 !

#474926172
r0.09498523440000001 !

#475663635
r0.09513272700000001 !

#476401098
r0.09528021960000001 !

#477138561
r0.09542771220000000 !

#477876024
r0.09557520480000001 !

#478613487
r0.09572269740000000 !

#479350950
r0.09587019000000001 !

#480088413
r0.09601768260000000 !

#480825876
r0.09616517520000001 !

#481563339
r0.09631266780000000 !

#482300802
r0.09646016040000001 !

#483038265
r0.09660765300000000 !

#483775728
r0.09675514560000001 !

#484513191
r0.09690263820000000 !

#485250654
r0.09705013080000001 !

#485988117
r0.09719762340000000 !

#486725580
r0.09734511600000001 !

#487463043
r0.09749260860000000 !

#488200506
r0.09764010120000001 !

#488937969
r0.09778759380000000 !

#489675432
r0.09793508640000001 !

#490412895
r0.09808257900000000 !

#491150358
r0.09823007160000001 !

#491887821
r0.09837756420000000 !

#492625284
r0.09852505680000001 !

#493362747
r0.09867254940000000 !

#494100210
r0.09882004200000001 !

#494837673
r0.09896753460000000 !

#495575136
r0.09911502720000001 !

#496312599
r0.09926251980000000 !

#497050062
r0.09941001240000001 !

#497787525
r0.09955750500000000 !

#498524988
r0.09970499760000001 !

#499262451
r0.09985249020000000 !

#499999914
r0.09999998280000001 !

#500737377
r0.1001474754000000 !

#501474840
r0.1002949680000000 !

#502212303
r0.1004424606000000 !

#502949766
r0.1005899532000000 !

#503687229
r0.1007374458000000 !

#504424692
r0.1008849384000000 !

#505162155
r0.1010324310000000 !

#505899618
r0.1011799236000000 !

#506637081
r0.1013274162000000 !

#507374544
r0.1014749088000000 !

#508112007
r0.1016224014000000 !

#508849470
r0.1017698940000000 !

#509586933
r0.1019173866000000 !

#510324396
r0.1020648792000000 !

#511061859
r0.1022123718000000 !

#511799322
r0.1023598644000000 !

#512536785
r0.1025073570000000 !

#513274248
r0.1026548496000000 !

#514011711
r0.1028023422000000 !

#514749174
r0.1029498348000000 !

#515486637
r0.1030973274000000 !

#516224100
r0.1032448200000000 !

#516961563
r0.1033923126000000 !

#517699026
r0.1035398052000000 !

#518436489
r0.1036872978000000 !

#519173952
r0.1038347904000000 !

#519911415
r0.1039822830000000 !

#520648878
r0.1041297756000000 !

#521386341
r0.1042772682000000 !

#522123804
r0.1044247608000000 !

#522861267
r0.1045722534000000 !

#523598730
r0.1047197460000000 !

#524336193
r0.1048672386000000 !

#525073656
r0.1050147312000000 !

#525811119
r0.1051622238000000 !

#526548582
r0.1053097164000000 !

#527286045
r0.1054572090000000 !

#528023508
r0.1056047016000000 !

#528760971
r0.1057521942000000 !

#529498434
r0.1058996868000000 !

#530235897
r0.1060471794000000 !

#530973360
r0.1061946720000000 !

#531710823
r0.1063421646000000 !

#532448286
r0.1064896572000000 !

#533185749
r0.1066371498000000 !

#533923212
r0.1067846424000000 !

#534660675
r0.1069321350000000 !

#535398138
r0.1070796276000000 !

#536135601
r0.1072271202000000 !

#536873064
r0.1073746128000000 !

#537610527
r0.1075221054000000 !

#538347990
r0.1076695980000000 !

#539085453
r0.1078170906000000 !

#539822916
r0.1079645832000000 !

#540560379
r0.1081120758000000 !

#541297842
r0.1082595684000000 !

#542035305
r0.1084070610000000 !

#542772768
r0.1085545536000000 !

#543510231
r0.1087020462000000 !

#544247694
r0.1088495388000000 !

#544985157
r0.1089970314000000 !

#545722620
r0.1091445240000000 !

#546460083
r0.1092920166000000 !

#547197546
r0.1094395092000000 !

#547935009
r0.1095870018000000 !

#548672472
r0.1097344944000000 !

#549409935
r0.1098819870000000 !

#550147398
r0.1100294796000000 !

#550884861
r0.1101769722000000 !

#551622324
r0.1103244648000000 !

#552359787
r0.1104719574000000 !

#553097250
r0.1106194500000000 !

#553834713
r0.1107669426000000 !

#554572176
r0.1109144352000000 !

#555309639
r0.1110619278000000 !

#556047102
r0.1112094204000000 !

#556784565
r0.1113569130000000 !

#557522028
r0.1115044056000000 !

#558259491
r0.1116518982000000 !

#558996954
r0.1117993908000000 !

#559734417
r0.1119468834000000 !

#560471880
r0.1120943760000000 !

#561209343
r0.1122418686000000 !

#561946806
r0.1123893612000000 !

#562684269
r0.1125368538000000 !

#563421732
r0.1126843464000000 !

#564159195
r0.1128318390000000 !

#564896658
r0.1129793316000000 !

#565634121
r0.1131268242000000 !

#566371584
r0.1132743168000000 !

#567109047
r0.1134218094000000 !

#567846510
r0.1135693020000000 !

#568583973
r0.1137167946000000 !

#569321436
r0.1138642872000000 !

#570058899
r0.1140117798000000 !

#570796362
r0.1141592724000000 !

#571533825
r0.1143067650000000 !

#572271288
r0.1144542576000000 !

#573008751
r0.1146017502000000 !

#573746214
r0.1147492428000000 !

#574483677
r0.1148967354000000 !

#575221140
r0.1150442280000000 !

#575958603
r0.1151917206000000 !

#576696066
r0.1153392132000000 !

#577433529
r0.1154867058000000 !

#578170992
r0.1156341984000000 !

#578908455
r0.1157816910000000 !

#579645918
r0.1159291836000000 !

#580383381
r0.1160766762000000 !

#581120844
r0.1162241688000000 !

#581858307
r0.1163716614000000 !

#582595770
r0.1165191540000000 !

#583333233
r0.1166666466000000 !

#584070696
r0.1168141392000000 !

#584808159
r0.1169616318000000 !

#585545622
r0.1171091244000000 !

#586283085
r0.1172566170000000 !

#587020548
r0.1174041096000000 !

#587758011
r0.1175516022000000 !
1"

#588495474
r0.1176990948000000 !

#589232937
r0.1178465874000000 !

#589970400
r0.1179940800000000 !

#590707863
r0.1181415726000000 !

#591445326
r0.1182890652000000 !

#592182789
r0.1184365578000000 !

#592920252
r0.1185840504000000 !

#593657715
r0.1187315430000000 !

#594395178
r0.1188790356000000 !

#595132641
r0.1190265282000000 !

#595870104
r0.1191740208000000 !

#596607567
r0.1193215134000000 !

#597345030
r0.1194690060000000 !

#598082493
r0.1196164986000000 !

#598819956
r0.1197639912000000 !

#599557419
r0.1199114838000000 !

#600294882
r0.1200589764000000 !

#601032345
r0.1202064690000000 !

#601769808
r0.1203539616000000 !

#602507271
r0.1205014542000000 !

#603244734
r0.1206489468000000 !

#603982197
r0.1207964394000000 !

#604719660
r0.1209439320000000 !

#605457123
r0.1210914246000000 !

#606194586
r0.1212389172000000 !

#606932049
r0.1213864098000000 !

#607669512
r0.1215339024000000 !

#608406975
r0.1216813950000000 !

#609144438
r0.1218288876000000 !

#609881901
r0.1219763802000000 !

#610619364
r0.1221238728000000 !

#611356827
r0.1222713654000000 !

#612094290
r0.1224188580000000 !

#612831753
r0.1225663506000000 !

#613569216
r0.1227138432000000 !

#614306679
r0.1228613358000000 !

#615044142
r0.1230088284000000 !

#615781605
r0.1231563210000000 !

#616519068
r0.1233038136000000 !

#617256531
r0.1234513062000000 !

#617993994
r0.1235987988000000 !

#618731457
r0.1237462914000000 !

#619468920
r0.1238937840000000 !

#620206383
r0.1240412766000000 !

#620943846
r0.1241887692000000 !

#621681309
r0.1243362618000000 !

#622418772
r0.1244837544000000 !

#623156235
r0.1246312470000000 !

#623893698
r0.1247787396000000 !

#624631161
r0.1249262322000000 !

#625368624
r0.1250737248000000 !

#626106087
r0.1252212174000000 !

#626843550
r0.1253687100000000 !

#627581013
r0.1255162026000000 !

#628318476
r0.1256636952000000 !

#629055939
r0.1258111878000000 !

#629793402
r0.1259586804000000 !

#630530865
r0.1261061730000000 !

#631268328
r0.1262536656000000 !

#632005791
r0.1264011582000000 !

#632743254
r0.1265486508000000 !

#633480717
r0.1266961434000000 !

#634218180
r0.1268436360000000 !

#634955643
r0.1269911286000000 !

#635693106
r0.1271386212000000 !

#636430569
r0.1272861138000000 !

#637168032
r0.1274336064000000 !

#637905495
r0.1275810990000000 !

#638642958
r0.1277285916000000 !

#639380421
r0.1278760842000000 !

#640117884
r0.1280235768000000 !

#640855347
r0.1281710694000000 !

