problem/backup/tryout/a_pll_spice/spc_2_c/1108/vco_SPICE_sysC.vcd
$date
    Wed Nov 14 22:56:00 2012
$end

$version
                 SystemC AMS 1.0 --- 1.0Beta2 --- unknown release date
$end

$timescale
      1 fs
$end

$scope module SystemC_AMS $end

$var real 1 !  v_ctrl $end
$var wire 1 "  vco_out $end

$upscope $end

$enddefinitions $end


#0
r0.000000000000000 !
0"

#7374631
r0.006823861300418798 !
1"

#14749262
r0.02598053999793137 !
1"

#22123893
r0.04347260131880069 !
1"

#29498524
r0.05946304572535289 !
1"

#36873155
r0.07409790277261595 !
1"

#44247786
r0.08750813765237482 !
1"

#51622417
r0.09981207966779297 !
1"

#58997048
r0.1111167965420862 !
1"

#66371679
r0.1215190157121442 !
1"

#73746310
r0.1311061865082063 !
1"

#81120941
r0.1399574020210426 !
1"

#88495572
r0.1481443114730235 !
1"

#95870203
r0.1557317596141669 !
1"

#103244834
r0.1627786389680694 !
1"

#110619465
r0.1693381644332222 !
1"

#117994096
r0.1754577552813691 !
1"

#125368727
r0.1811795972799121 !
1"

#132743358
r0.1865425938508844 !
1"

#140117989
r0.1915822547693506 !
1"

#147492620
r0.1963312498082248 !
0"

#154867251
r0.2008191232605560 !
0"

#162241882
r0.2050702945261417 !
0"

#169616513
r0.2091075827722758 !
0"

#176991144
r0.2129516152018121 !
0"

#184365775
r0.2166212882695527 !
0"

#191740406
r0.2201227260910907 !
0"

#199115037
r0.2234751920995269 !
0"

#206489668
r0.2148835755486203 !
0"

#213864299
r0.1995813478487120 !
0"

#221238930
r0.1857154097904640 !
0"

#228613561
r0.1799187329804260 !
0"

#235988192
r0.1875452818753132 !
0"

#243362823
r0.1946256258381503 !
0"

#250737454
r0.2012138192162525 !
0"

#258112085
r0.2073581899618824 !
1"

#265486716
r0.2131027451238443 !
1"

#272861347
r0.2184783366864947 !
1"

#280235978
r0.2235188346086121 !
1"

#287610609
r0.2282832018889764 !
1"

#294985240
r0.2327873497921314 !
1"

#302359871
r0.2370471727159169 !
1"

#309734502
r0.2410987066293662 !
1"

#317109133
r0.2449533466083871 !
1"

#324483764
r0.2486314359034949 !
1"

#331858395
r0.2521147002800540 !
1"

#339233026
r0.2554968390394175 !
1"

#346607657
r0.2587506590895477 !
1"

#353982288
r0.2618850480537597 !
1"

#361356919
r0.2649162705865594 !
0"

#368731550
r0.2678278206249893 !
0"

#376106181
r0.2706626810753107 !
0"

#383480812
r0.2734463488635579 !
0"

#390855443
r0.2761522662767909 !
0"

#398230074
r0.2787990503011844 !
0"

#405604705
r0.2813346078706687 !
0"

#412979336
r0.2838798072000585 !
0"

#420353967
r0.2863649607310582 !
0"

#427728598
r0.2888200433314560 !
0"

#435103229
r0.2911769534709573 !
0"

#442477860
r0.2935606900012898 !
1"

#449852491
r0.2959102055274098 !
1"

#457227122
r0.2982124680705395 !
1"

#464601753
r0.3004660374036482 !
1"

#471976384
r0.3027393888485373 !
1"

#479351015
r0.3046818507790591 !
1"

#486725646
r0.2876463536282327 !
1"

#494100277
r0.2722719626988945 !
1"

#501474908
r0.2583408865211895 !
1"

#508849539
r0.2457340608068149 !
1"

#516224170
r0.2343075426493271 !
1"

#523598801
r0.2306361327784834 !
0"

#530973432
r0.2400979284662146 !
0"

#538348063
r0.2488478088718669 !
0"

#545722694
r0.2569382878698634 !
0"

#553097325
r0.2644485134456819 !
0"

#560471956
r0.2714253492652902 !
0"

#567846587
r0.2778816662269918 !
0"

#575221218
r0.2839587016522013 !
0"

#582595849
r0.2896384094893000 !
0"

#589970480
r0.2949841030797925 !
0"

#597345111
r0.2999480323928638 !
0"

#604719742
r0.3046873410027924 !
0"

#612094373
r0.3091762240530859 !
1"

#619469004
r0.3133723021256569 !
1"

#626843635
r0.3173995439590404 !
1"

#634218266
r0.3212573330262291 !
1"

#641592897
r0.3248766553826393 !
1"

#648967528
r0.3283975790534024 !
1"

#656342159
r0.3317834274590153 !
1"

#663716790
r0.3349688348444267 !
1"

#671091421
r0.3381170884774967 !
1"

#678466052
r0.3411158349357708 !
1"

#685840683
r0.3440427019755810 !
0"

#693215314
r0.3469113631145317 !
0"

#700589945
r0.3496287350532830 !
0"

#707964576
r0.3523607721672531 !
0"

#715339207
r0.3549330570581838 !
0"

#722713838
r0.3575425132881651 !
0"

#730088469
r0.3600187440743634 !
0"

#737463100
r0.3625272577540246 !
0"

#744837731
r0.3649191933934662 !
0"

#752212362
r0.3673501398122512 !
1"

#759586993
r0.3696675747611131 !
1"

#766961624
r0.3720419918896933 !
1"

#774336255
r0.3742935733390131 !
1"

#781710886
r0.3766113443972611 !
1"

#789085517
r0.3788164838798559 !
1"

#796460148
r0.3771901995344162 !
1"

#803834779
r0.3605506592333912 !
1"

#811209410
r0.3455438170618392 !
0"

#818584041
r0.3385411279967267 !
0"

#825958672
r0.3449006559666685 !
0"

#833333303
r0.3507599870201087 !
0"

#840707934
r0.3563355886282428 !
0"

#848082565
r0.3614921265913928 !
0"

#855457196
r0.3664260510400595 !
0"

#862831827
r0.3710074796602473 !
0"

#870206458
r0.3754275696780347 !
0"

#877581089
r0.3795286120990711 !
1"

#884955720
r0.3835149155928384 !
1"

#892330351
r0.3872366321340026 !
1"

#899704982
r0.3908267475328652 !
1"

#907079613
r0.3942843295657977 !
1"

#914454244
r0.3975636463465704 !
1"

#921828875
r0.4007893290055397 !
1"

#929203506
r0.4038322345393900 !
1"

#936578137
r0.4067780015228126 !
0"

#943952768
r0.4097047427000021 !
0"

#951327399
r0.4124794049786478 !
0"

#958702030
r0.4151728418236836 !
0"

#966076661
r0.4178446739299589 !
0"

#973451292
r0.4204692217631509 !
0"

#980825923
r0.4229711381588356 !
0"

#988200554
r0.4144832780457904 !
1"

#995575185
r0.3988092848569402 !
1"

#1002949816
r0.3845606964555189 !
1"

#1010324447
r0.3716653375074898 !
1"

#1017699078
r0.3600499861272224 !
1"

#1025073709
r0.3494764446625193 !
1"

#1032448340
r0.3399640795007890 !
1"

#1039822971
r0.3379668508580523 !
1"

#1047197602
r0.3487789124022632 !
0"

#1054572233
r0.3587822938407453 !
0"

#1061946864
r0.3679547271429915 !
0"

#1069321495
r0.3765079189386851 !
0"

#1076696126
r0.3843698745438742 !
0"

#1084070757
r0.3916977996001359 !
0"

#1091445388
r0.3985352314248626 !
0"

#1098820019
r0.4048681089445148 !
0"

#1106194650
r0.4108435420363464 !
0"

#1113569281
r0.4163993331438774 !
1"

#1120943912
r0.4215949318727255 !
1"

#1128318543
r0.4265054528791326 !
1"

#1135693174
r0.4311851066025613 !
1"

#1143067805
r0.4355540258029247 !
1"

#1150442436
r0.4396886128266267 !
1"

#1157817067
r0.4436164745208955 !
1"

#1165191698
r0.4392701454366201 !
0"

#1172566329
r0.4245222113910105 !
0"

#1179940960
r0.4111510143141346 !
0"

#1187315591
r0.4056081981640868 !
0"

#1194690222
r0.4132201836782242 !
0"

#1202064853
r0.4203287907823434 !
0"

#1209439484
r0.4268764572667713 !
0"

#1216814115
r0.4329945183854692 !
1"

#1224188746
r0.4387424044848858 !
1"

#1231563377
r0.4441631791989112 !
1"

#1238938008
r0.4492210154284086 !
1"

#1246312639
r0.4539615863991905 !
1"

#1253687270
r0.4584487942315221 !
1"

#1261061901
r0.4626944737037115 !
1"

#1268436532
r0.4667243899473997 !
0"

#1275811163
r0.4705602014640146 !
0"

#1283185794
r0.4742198008657834 !
0"

#1290560425
r0.4777193526629758 !
0"

#1297935056
r0.4731233531931232 !
0"

#1305309687
r0.4580178273465380 !
0"

#1312684318
r0.4443675266591071 !
0"

#1320058949
r0.4320344677884448 !
1"

#1327433580
r0.4208216360398632 !
1"

#1334808211
r0.4172604647563963 !
1"

#1342182842
r0.4266452391437697 !
1"

#1349557473
r0.4353586594220065 !
1"

#1356932104
r0.4433697232374172 !
1"

#1364306735
r0.4507985668942594 !
1"

#1371681366
r0.4577085603751811 !
0"

#1379055997
r0.4641435738396655 !
0"

#1386430628
r0.4701568612677259 !
0"

#1393805259
r0.4757837906157241 !
0"

#1401179890
r0.4810586264482520 !
0"

#1408554521
r0.4860143095862490 !
0"

#1415929152
r0.4906822846858577 !
0"

#1423303783
r0.4866898056625957 !
1"

#1430678414
r0.4725997587247234 !
1"

#1438053045
r0.4598506271019731 !
1"

#1445427676
r0.4483257075454091 !
1"

#1452802307
r0.4379224969517006 !
1"

#1460176938
r0.4284944914398802 !
1"

#1467551569
r0.4199192033980382 !
0"

#1474926200
r0.4121665499083454 !
0"

#1482300831
r0.4118117739196001 !
0"

#1489675462
r0.4240154504215072 !
0"

#1497050093
r0.4352288086714292 !
0"

#1504424724
r0.4455619343173804 !
0"

#1511799355
r0.4551192165551400 !
0"

#1519173986
r0.4639487567069494 !
1"

#1526548617
r0.4721126811147117 !
1"

#1533923248
r0.4796696887382842 !
1"

#1541297879
r0.4866837860331379 !
1"

#1548672510
r0.4913133324977461 !
1"

#1556047141
r0.4851290816368574 !
1"

#1563421772
r0.4920365680757035 !
1"

#1570796403
r0.4984672833241567 !
0"

#1578171034
r0.5044582454980048 !
0"

#1585545665
r0.5100671836642567 !
0"

#1592920296
r0.5153367133115014 !
0"

#1600294927
r0.5202845151080666 !
0"

#1607669558
r0.5249387097606527 !
0"

#1615044189
r0.5293445621935777 !
1"

#1622418820
r0.5334646541766633 !
1"

#1629793451
r0.5373939744175950 !
1"

#1637168082
r0.5411456749419853 !
1"

#1644542713
r0.5446683922825561 !
1"

#1651917344
r0.5293080100782525 !
1"

#1659291975
r0.5153187702150204 !
0"

#1666666606
r0.5026846586100553 !
0"

#1674041237
r0.4912534053718070 !
0"

#1681415868
r0.4809069448697157 !
0"

#1688790499
r0.4715420088418628 !
0"

#1696165130
r0.4630620772834472 !
0"

#1703539761
r0.4619553143933456 !
1"

#1710914392
r0.4734909606601466 !
1"

#1718289023
r0.4841053575061390 !
1"

#1725663654
r0.4938830932450174 !
1"

#1733038285
r0.5029075479716073 !
1"

#1740412916
r0.5112530434176857 !
1"

#1747787547
r0.5189699384565756 !
1"

#1755162178
r0.5112684265566688 !
0"

#1762536809
r0.5002985757551763 !
0"

#1769911440
r0.4903536816604532 !
0"

#1777286071
r0.4879033329181711 !
0"

#1784660702
r0.4981806705294053 !
0"

#1792035333
r0.5076515423205263 !
0"

#1799409964
r0.5163925516483953 !
1"

#1806784595
r0.5244911987159669 !
1"

#1814159226
r0.5319935915756234 !
1"

#1821533857
r0.5389678078314595 !
1"

#1828908488
r0.5454086764270212 !
1"

#1836283119
r0.5514156570263110 !
1"

#1843657750
r0.5570371369780126 !
0"

#1851032381
r0.5531874387921382 !
0"

#1858407012
r0.5588910917335048 !
0"

#1865781643
r0.5642649651316066 !
0"

#1873156274
r0.5693123762842914 !
0"

#1880530905
r0.5740037606031521 !
1"

#1887905536
r0.5784526688312610 !
1"

#1895280167
r0.5826579376318387 !
1"

#1902654798
r0.5866248145804579 !
1"

#1910029429
r0.5904071449785488 !
1"

#1917404060
r0.5939686046689933 !
1"

#1924778691
r0.5973826014347560 !
0"

#1932153322
r0.5834018367074912 !
0"

#1939527953
r0.5693725887903978 !
0"

#1946902584
r0.5566978588160704 !
0"

#1954277215
r0.5451751514744142 !
0"

#1961651846
r0.5347895743209738 !
1"

#1969026477
r0.5253880137494138 !
1"

#1976401108
r0.5169052161539125 !
1"

#1983775739
r0.5092014922156547 !
1"

#1991150370
r0.5022136060298447 !
1"

#1998525001
r0.5024329930172421 !
1"

#2005899632
r0.5151150565657706 !
0"

#2013274263
r0.5267698812423315 !
0"

#2020648894
r0.5250927939206628 !
0"

#2028023525
r0.5171578364376680 !
0"

#2035398156
r0.5099488292426591 !
0"

#2042772787
r0.5034083734068001 !
0"

#2050147418
r0.4974950335049565 !
1"

#2057522049
r0.4921509373205548 !
1"

#2064896680
r0.4873207152873240 !
1"

#2072271311
r0.4895909460261356 !
1"

#2079645942
r0.5040489613961892 !
1"

#2087020573
r0.5173031295595911 !
1"

#2094395204
r0.5294518460355400 !
0"

#2101769835
r0.5406263468899031 !
0"

#2109144466
r0.5508462984186309 !
0"

#2116519097
r0.5522376493897785 !
0"

#2123893728
r0.5428367916289527 !
0"

#2131268359
r0.5343491966390194 !
0"

#2138642990
r0.5266172756202402 !
1"

#2146017621
r0.5261580014338412 !
1"

#2153392252
r0.5382018577155436 !
1"

#2160766883
r0.5492559724247288 !
1"

#2168141514
r0.5593940840529792 !
1"

#2175516145
r0.5687274631056983 !
1"

#2182890776
r0.5773477638234205 !
0"

#2190265407
r0.5852855261848446 !
0"

#2197640038
r0.5926314880453749 !
0"

#2205014669
r0.5843105867368987 !
0"

#2212389300
r0.5732835031268513 !
0"

#2219763931
r0.5697894206544685 !
1"

#2227138562
r0.5789572940631883 !
1"

#2234513193
r0.5874188630252447 !
1"

#2241887824
r0.5952504751813523 !
1"

#2249262455
r0.6024565904059459 !
1"

#2256637086
r0.6091646762105181 !
0"

#2264011717
r0.6153704522519094 !
0"

#2271386348
r0.6211662307081203 !
0"

#2278760979
r0.6197352037525210 !
0"

#2286135610
r0.6068723770006463 !
0"

#2293510241
r0.6016232826278668 !
1"

#2300884872
r0.6091640358976790 !
1"

#2308259503
r0.6161217581883593 !
1"

#2315634134
r0.6225880268566861 !
1"

#2323008765
r0.6285874454911744 !
1"

#2330383396
r0.6341843668696604 !
0"

#2337758027
r0.6393931824415652 !
0"

#2345132658
r0.6442777279953509 !
0"

#2352507289
r0.6397919753979256 !
0"

#2359881920
r0.6265062998826992 !
0"

#2367256551
r0.6208360371850776 !
1"

#2374631182
r0.6279350491191112 !
1"

#2382005813
r0.6344970107444612 !
1"

#2389380444
r0.6405980328821576 !
1"

#2396755075
r0.6462705348553702 !
1"

#2404129706
r0.6515499473882647 !
0"

#2411504337
r0.6564949686293385 !
0"

#2418878968
r0.6610868681499414 !
0"

#2426253599
r0.6489525190606806 !
0"

#2433628230
r0.6361800092158624 !
0"

#2441002861
r0.6309765901682336 !
1"

#2448377492
r0.6384458928279303 !
1"

#2455752123
r0.6453340961558763 !
1"

#2463126754
r0.6517386191706693 !
1"

#2470501385
r0.6576508632293182 !
1"

#2477876016
r0.6631965594212023 !
0"

#2485250647
r0.6683484830873920 !
0"

#2492625278
r0.6646033037644711 !
0"

#2499999909
r0.6516438069021023 !
0"

#2507374540
r0.6398939603454906 !
0"

#2514749171
r0.6356233321439467 !
1"

#2522123802
r0.6439140006168462 !
1"

#2529498433
r0.6515339923703900 !
1"

#2536873064
r0.6585930830499365 !
1"

#2544247695
r0.6650928146640874 !
0"

#2551622326
r0.6711681526322137 !
0"

#2558996957
r0.6750023510463208 !
0"

#2566371588
r0.6621738090048517 !
0"

#2573746219
r0.6506127203433293 !
0"

#2581120850
r0.6401321224264802 !
1"

#2588495481
r0.6369987167746073 !
1"

#2595870112
r0.6463124038177079 !
1"

#2603244743
r0.6548435752660298 !
1"

#2610619374
r0.6627380288745579 !
1"

#2617994005
r0.6699893715485110 !
0"

#2625368636
r0.6767161796417515 !
0"

#2632743267
r0.6692460114305658 !
0"

#2640117898
r0.6580060462181470 !
0"

#2647492529
r0.6478848836020904 !
1"

#2654867160
r0.6387122218733039 !
1"

#2662241791
r0.6367554307237070 !
1"

#2669616422
r0.6471283158919919 !
1"

#2676991053
r0.6566135570658873 !
1"

#2684365684
r0.6653756120800594 !
0"

#2691740315
r0.6734103365702914 !
0"

#2699114946
r0.6736825651494966 !
0"

#2706489577
r0.6629820499901924 !
0"

#2713864208
r0.6532713509617689 !
0"

#2721238839
r0.6445214062216013 !
1"

#2728613470
r0.6365974658579964 !
1"

#2735988101
r0.6357187645947456 !
1"

#2743362732
r0.6471164269213792 !
1"

#2750737363
r0.6575249027283022 !
0"

#2758111994
r0.6671176309443932 !
0"

#2765486625
r0.6757350809492150 !
0"

#2772861256
r0.6656918456120385 !
0"

#2780235887
r0.6565628441841662 !
0"

#2787610518
r0.6482730287863294 !
1"

#2794985149
r0.6408061174779460 !
1"

#2802359780
r0.6340407181778074 !
1"

#2809734411
r0.6342672537750029 !
1"

#2817109042
r0.6466217021640861 !
1"

#2824483673
r0.6578860651598890 !
0"

#2831858304
r0.6682483057461059 !
0"

#2839232935
r0.6665391096036680 !
0"

#2846607566
r0.6580224787449063 !
0"

#2853982197
r0.6503160679892548 !
0"

#2861356828
r0.6433126036958372 !
1"

#2868731459
r0.6370199983818017 !
1"

#2876106090
r0.6312988605825713 !
1"

#2883480721
r0.6324986769459484 !
1"

#2890855352
r0.6457269975020178 !
0"

#2898229983
r0.6577998582776495 !
0"

#2905604614
r0.6660990069794162 !
0"

#2912979245
r0.6581915514973246 !
0"

#2920353876
r0.6510827306645163 !
0"

#2927728507
r0.6446354021048262 !
1"

#2935103138
r0.6387875627052254 !
1"

#2942477769
r0.6335112949081904 !
1"

#2949852400
r0.6287128040463180 !
1"

#2957227031
r0.6307677372772723 !
1"

#2964601662
r0.6447370998025012 !
0"

#2971976293
r0.6575302976211821 !
0"

#2979350924
r0.6574358610069390 !
0"

#2986725555
r0.6508816723928307 !
0"

#2994100186
r0.6449602656747954 !
0"

#3001474817
r0.6395717100111913 !
1"

#3008849448
r0.6347387524813037 !
1"

#3016224079
r0.6303369787591083 !
1"

#3023598710
r0.6263721950950175 !
1"

#3030973341
r0.6291497575931712 !
0"

#3038347972
r0.6438109872306415 !
0"

#3045722603
r0.6559081444062405 !
0"

#3053097234
r0.6499081611499994 !
0"

#3060471865
r0.6445157456796887 !
0"

#3067846496
r0.6396047102314105 !
1"

#3075221127
r0.6351878915400291 !
1"

#3082595758
r0.6311840251390106 !
1"

#3089970389
r0.6275556503339326 !
1"

#3097345020
r0.6242843382641656 !
1"

#3104719651
r0.6276769758539437 !
0"

#3112094282
r0.6429141007672127 !
0"

#3119468913
r0.6481265300829288 !
0"

#3126843544
r0.6432558829860755 !
0"

#3134218175
r0.6388174521224770 !
0"

#3141592806
r0.6348279231255811 !
1"

#3148967437
r0.6312148525201220 !
1"

#3156342068
r0.6279331039699843 !
1"

#3163716699
r0.6249768462330446 !
1"

#3171091330
r0.6222857189791355 !
1"

#3178465961
r0.6262408327739566 !
0"

#3185840592
r0.6419511363264387 !
0"

#3193215223
r0.6417274830243327 !
0"

#3200589854
r0.6377169309664920 !
0"

#3207964485
r0.6341278837652066 !
0"

#3215339116
r0.6308621205080990 !
1"

#3222713747
r0.6279160408495126 !
1"

#3230088378
r0.6252459763783479 !
1"

#3237463009
r0.6228258429590731 !
1"

#3244837640
r0.6206485127898764 !
1"

#3252212271
r0.6250369471053067 !
0"

#3259586902
r0.6401088978784102 !
0"

#3266961533
r0.6365093075102840 !
0"

#3274336164
r0.6332681068674784 !
0"

#3281710795
r0.6303056865453041 !
1"

#3289085426
r0.6276624548060261 !
1"

#3296460057
r0.6252423097546391 !
1"

#3303834688
r0.6230758831445190 !
1"

#3311209319
r0.6210988394649969 !
1"

#3318583950
r0.6193213868083320 !
0"

#3325958581
r0.6240871502763859 !
0"

#3333333212
r0.6348451758727278 !
0"

#3340707843
r0.6319558323508981 !
0"

#3348082474
r0.6293321681550366 !
0"

#3355457105
r0.6269712327075921 !
1"

#3362831736
r0.6248138969128627 !
1"

#3370206367
r0.6228830008804100 !
1"

#3377580998
r0.6211155954291433 !
1"

#3384955629
r0.6195331652895257 !
1"

#3392330260
r0.6180825323058668 !
0"

#3399704891
r0.6231756510421540 !
0"

#3407079522
r0.6306521547073344 !
0"

#3414454153
r0.6283303731409888 !
0"

#3421828784
r0.6261971266579549 !
0"

#3429203415
r0.6242951172667451 !
1"

#3436578046
r0.6225594064364035 !
1"

#3443952677
r0.6209954288571649 !
1"

#3451327308
r0.6195748736521116 !
1"

#3458701939
r0.6182929841766904 !
1"

#3466076570
r0.6171370126187907 !
0"

#3473451201
r0.6224636872457503 !
0"

#3480825832
r0.6274549186376609 !
0"

#3488200463
r0.6255514783566732 !
0"

#3495575094
r0.6238403936502576 !
0"

#3502949725
r0.6222753926175619 !
1"

#3510324356
r0.6208786812154774 !
1"

#3517698987
r0.6195931792340933 !
1"

#3525073618
r0.6184493698708639 !
1"

#3532448249
r0.6173950861202867 !
1"

#3539822880
r0.6164573985060645 !
0"

#3547197511
r0.6219753269276831 !
0"

#3554572142
r0.6249302176922877 !
0"

#3561946773
r0.6233645437660575 !
0"

#3569321404
r0.6219711342216035 !
0"

#3576696035
r0.6206810272823750 !
1"

#3584070666
r0.6195508204343918 !
1"

#3591445297
r0.6184911005942422 !
1"

#3598819928
r0.6175646931192460 !
1"

#3606194559
r0.6166955992221945 !
1"

#3613569190
r0.6159398770806608 !
0"

#3620943821
r0.6216044418283929 !
0"

#3628318452
r0.6230094985434090 !
0"

#3635693083
r0.6217148490216350 !
0"

#3643067714
r0.6205675653098176 !
0"

#3650442345
r0.6195145306052938 !
1"

#3657816976
r0.6185716516117142 !
1"

#3665191607
r0.6177076409250252 !
1"

#3672566238
r0.6169355473599303 !
1"

#3679940869
r0.6162329599053188 !
1"

#3687315500
r0.6155975862736563 !
0"

#3694690131
r0.6213985553256616 !
0"

#3702064762
r0.6213718579312807 !
0"

#3709439393
r0.6203263365020308 !
0"

#3716814024
r0.6193725646811632 !
0"

#3724188655
r0.6185217001991297 !
1"

#3731563286
r0.6177366828019787 !
1"

#3738937917
r0.6170383861306681 !
1"

#3746312548
r0.6163938115611544 !
1"

#3753687179
r0.6158275495208141 !
1"

#3761061810
r0.6152965201439000 !
0"

#3768436441
r0.6209929803695312 !
0"

#3775811072
r0.6200641690339908 !
0"

#3783185703
r0.6192103463895382 !
0"

#3790560334
r0.6184188430301881 !
0"

#3797934965
r0.6177230205976427 !
1"

#3805309596
r0.6170720581788339 !
1"

#3812684227
r0.6165030599956551 !
1"

#3820058858
r0.6159673852462231 !
1"

#3827433489
r0.6155050401203478 !
1"

#3834808120
r0.6150641439044734 !
0"

#3842182751
r0.6198262548970869 !
0"

#3849557382
r0.6190301682924868 !
0"

#3856932013
r0.6183239334782459 !
0"

#3864306644
r0.6176673478823252 !
0"

#3871681275
r0.6170870108040852 !
1"

#3879055906
r0.6165546649538166 !
1"

#3886430537
r0.6160815971058166 !
1"

#3893805168
r0.6156398207474001 !
1"

#3901179799
r0.6152526373668217 !
1"

#3908554430
r0.6148912186439193 !
0"

#3915929061
r0.6189365464498426 !
0"

#3923303692
r0.6182697327857059 !
0"

#3930678323
r0.6176765510878843 !
0"

#3938052954
r0.6171228581706962 !
0"

#3945427585
r0.6166433075253164 !
1"

#3952802216
r0.6161924916925001 !
1"

#3960176847
r0.6157977989908646 !
1"

#3967551478
r0.6154228545081931 !
1"

#3974926109
r0.6151050743975739 !
1"

#3982300740
r0.6147935821581696 !
0"

#3989675371
r0.6181169052462988 !
0"

#3997050002
r0.6175561768304136 !
0"

#4004424633
r0.6170734007953002 !
0"

#4011799264
r0.6166070778840801 !
0"

#4019173895
r0.6162163227499995 !
1"

#4026548526
r0.6158369883208439 !
1"

#4033923157
r0.6155167021686462 !
1"

#4041297788
r0.6151990333366717 !
1"

#4048672419
r0.6149421144528044 !
1"

#4056047050
r0.6146787917799176 !
0"

#4063421681
r0.6175328475437325 !
0"

#4070796312
r0.6170554251061717 !
0"

#4078170943
r0.6166527036254499 !
0"

#4085545574
r0.6162572211966058 !
0"

#4092920205
r0.6159291774456157 !
1"

#4100294836
r0.6156069581203271 !
1"

#4107669467
r0.6153400268517109 !
1"

#4115044098
r0.6150696318935228 !
1"

#4122418729
r0.6148549571720955 !
1"

#4129793360
r0.6146318096541372 !
0"

#4137167991
r0.6172687753545265 !
0"

#4144542622
r0.6168450836416238 !
0"

#4151917253
r0.6164887166140431 !
0"

#4159291884
r0.6161395645870957 !
0"

#4166666515
r0.6158480129650991 !
1"

#4174041146
r0.6155629861777526 !
1"

#4181415777
r0.6153266019924725 !
1"

#4188790408
r0.6150877907571455 !
1"

#4196165039
r0.6148969287097997 !
1"

#4203539670
r0.6147010779535012 !
0"

#4210914301
r0.6168332981347943 !
0"

#4218288932
r0.6164761542823619 !
0"

#4225663563
r0.6161750015431167 !
0"

#4233038194
r0.6158823948469876 !
0"

#4240412825
r0.6156348327142284 !
1"

#4247787456
r0.6153951673133434 !
1"

#4255162087
r0.6151949598276381 !
1"

#4262536718
r0.6149948445110316 !
1"

#4269911349
r0.6148326823641220 !
1"

#4277285980
r0.6146694476962226 !
0"

#4284660611
r0.6165750612560523 !
0"

#4292035242
r0.6162658833705040 !
0"

#4299409873
r0.6160020510822563 !
0"

#4306784504
r0.6157503142800551 !
0"

#4314159135
r0.6155323997855959 !
1"

#4321533766
r0.6153254341659020 !
1"

#4328908397
r0.6151492304954796 !
1"

#4336283028
r0.6149774749858609 !
1"

#4343657659
r0.6148341563095413 !
1"

#4351032290
r0.6146951816489482 !
0"

#4358406921
r0.6160922421982629 !
0"

#4365781552
r0.6158476803157675 !
0"

#4373156183
r0.6156356282606092 !
0"

#4380530814
r0.6154376575600412 !
0"

#4387905445
r0.6152616726396780 !
1"

#4395280076
r0.6150980433432107 !
1"

#4402654707
r0.6149559443087333 !
1"

#4410029338
r0.6148208387207053 !
1"

#4417403969
r0.6147050185454034 !
1"

#4424778600
r0.6145965393844842 !
0"

#4432153231
r0.6160334542600635 !
0"

#4439527862
r0.6158125664995292 !
0"

#4446902493
r0.6156168492849767 !
0"

#4454277124
r0.6154388482797497 !
0"

#4461651755
r0.6152758505146545 !
1"

#4469026386
r0.6151283449448115 !
1"

#4476401017
r0.6149962867879302 !
1"

#4483775648
r0.6148755997049520 !
1"

#4491150279
r0.6147675786912392 !
1"

#4498524910
r0.6146714295105380 !
0"


