problem/backup/tryout/a_pll_spice/spc_2_c/1105/vco_rohit.vcd
$date
    Sat Nov  3 14:52:42 2012
$end

$version
                 SystemC AMS 1.0 --- 1.0Beta2 --- unknown release date
$end

$timescale
      1 fs
$end

$scope module SystemC_AMS $end

$var real 1 !  Vc $end
$var wire 1 "  vco_out $end

$upscope $end

$enddefinitions $end


#0
r0.000000000000000 !
0"

#737463
r1.588710384477359e-11 !
1"

#1474926
r3.071593863937084e-08 !
1"

#2212389
r5.928135536781757e-08 !
1"

#2949852
r9.064747824519730e-08 !
1"

#3687315
r1.139637096632861e-07 !
1"

#4424778
r1.447669792579624e-07 !
1"

#5162241
r1.749804939523190e-07 !
1"

#5899704
r0.001025611740924677 !
1"

#6637167
r0.002693458040534240 !
1"

#7374630
r0.004898449665539628 !
1"

#8112093
r0.007081518906248000 !
1"

#8849556
r0.009056072692280794 !
1"

#9587019
r0.01066443105634678 !
1"

#10324482
r0.01279032167739682 !
1"

#11061945
r0.01489518497406031 !
1"

#11799408
r0.01697925343652218 !
1"

#12536871
r0.01852879671953919 !
1"

#13274334
r0.02057702658258020 !
1"

#14011797
r0.02260508872642084 !
1"

#14749260
r0.02411303486015264 !
1"

#15486723
r0.02610634012660611 !
1"

#16224186
r0.02808008702155836 !
1"

#16961649
r0.02954769281830597 !
1"

#17699112
r0.03148773410754136 !
1"

#18436575
r0.03340880920520332 !
1"

#19174038
r0.03483729604244984 !
1"

#19911501
r0.03672568690173441 !
1"

#20648964
r0.03859568660397978 !
1"

#21386427
r0.03998624045467329 !
1"

#22123890
r0.04182454694253110 !
1"

#22861353
r0.04364501969179032 !
1"

#23598816
r0.04544785690415544 !
1"

#24336279
r0.04678852934887083 !
1"

#25073742
r0.04856097395721307 !
1"

#25811205
r0.05031631549218542 !
1"

#26548668
r0.05162171156789351 !
1"

#27286131
r0.05334757618119243 !
1"

#28023594
r0.05505685185773130 !
1"

#28761057
r0.05632803203181380 !
1"

#29498520
r0.05800871499420892 !
1"

#30235983
r0.05967330567328354 !
1"

#30973446
r0.06091129438851445 !
1"

#31710909
r0.06254814707864953 !
1"

#32448372
r0.06416938797908545 !
1"

#33185835
r0.06537517634624895 !
1"

#33923298
r0.06696950689232845 !
1"

#34660761
r0.06854869128980492 !
1"

#35398224
r0.07011289538396449 !
1"

#36135687
r0.07127631638308829 !
1"

#36873150
r0.07281469862592110 !
1"

#37610613
r0.07433854746330787 !
1"

#38348076
r0.07547199240458373 !
1"

#39085539
r0.07678421340139613 !
1"

#39823002
r0.07827066531898100 !
1"

#40560465
r0.07974315289131058 !
1"

#41297928
r0.08120182958462471 !
1"

#42035391
r0.08228686468072484 !
1"

#42772854
r0.08372173534814992 !
1"

#43510317
r0.08514320753350682 !
1"

#44247780
r0.08620060741003788 !
1"

#44985243
r0.08759898501404986 !
1"

#45722706
r0.08882055091977900 !
1"

#46460169
r0.09018602124099184 !
1"

#47197632
r0.09154741321242064 !
1"

#47935095
r0.09256018602512428 !
1"

#48672558
r0.09389963256903437 !
1"

#49410021
r0.09522672788093046 !
1"

#50147484
r0.09621402548965130 !
1"

#50884947
r0.09751983151404939 !
1"

#51622410
r0.09881365562144043 !
1"

#52359873
r0.09977623976173616 !
1"

#53097336
r0.1010494112040820 !
1"

#53834799
r0.1023109590588356 !
1"

#54572262
r0.1032495688082097 !
1"

#55309725
r0.1044910816867157 !
1"

#56047188
r0.1057213186530380 !
1"

#56784651
r0.1066366711147085 !
1"

#57522114
r0.1078474724354773 !
1"

#58259577
r0.1090473351913379 !
1"

#58997040
r0.1102363795558770 !
1"

#59734503
r0.1111211348136088 !
1"

#60471966
r0.1122915322341651 !
1"

#61209429
r0.1134514350394311 !
1"

#61946892
r0.1143145444859111 !
1"

#62684355
r0.1154563585063663 !
1"

#63421818
r0.1165879921008112 !
1"

#64159281
r0.1174301037722922 !
1"

#64896744
r0.1185441902282858 !
1"

#65634207
r0.1196484011604944 !
1"

#66371670
r0.1204701439380418 !
1"

#67109133
r0.1215573333819055 !
1"

#67846596
r0.1226349432076815 !
1"

#68584059
r0.1234369274163415 !
1"

#69321522
r0.1244980258775389 !
1"

#70058985
r0.1255498318893129 !
1"

#70796448
r0.1265924477994856 !
1"

#71533911
r0.1273684396577608 !
1"

#72271374
r0.1283952157901980 !
1"

#73008837
r0.1294130775563438 !
1"

#73746300
r0.1301706829709959 !
1"

#74483763
r0.1311731803713994 !
1"

#75221226
r0.1321670310522606 !
1"

#75958689
r0.1330864732718727 !
1"

#76696152
r0.1338203167843027 !
1"

#77433615
r0.1347914375852745 !
1"

#78171078
r0.1357542578620106 !
1"

#78908541
r0.1364709810195668 !
1"

#79646004
r0.1374194953140995 !
1"

#80383467
r0.1383599587517942 !
1"

#81120930
r0.1390600765099983 !
1"

#81858393
r0.1399866644727275 !
1"

#82595856
r0.1408024732303064 !
1"

#83333319
r0.1417030380207896 !
1"

#84070782
r0.1426074087735498 !
1"

#84808245
r0.1432807193003814 !
1"

#85545708
r0.1441719105689596 !
1"

#86283171
r0.1450556852843826 !
1"

#87020634
r0.1457136987093283 !
1"

#87758097
r0.1465846918114445 !
1"

#88495560
r0.1474484924300676 !
1"

#89233023
r0.1480916709128274 !
1"

#89970486
r0.1489430764009646 !
1"

#90707949
r0.1497875070802422 !
1"

#91445412
r0.1506250405606442 !
1"

#92182875
r0.1512487106150225 !
1"

#92920338
r0.1520743583184814 !
1"

#93657801
r0.1528933181059169 !
1"

#94395264
r0.1535031939197395 !
1"

#95132727
r0.1543106289403285 !
1"

#95870190
r0.1551115793795466 !
1"

#96607653
r0.1557080803392099 !
1"

#97345116
r0.1564978567318739 !
1"

#98082579
r0.1572813461674383 !
1"

#98820042
r0.1578648797976114 !
1"

#99557505
r0.1586375357773446 !
1"

#100294968
r0.1594040963995643 !
1"

#101032431
r0.1599750578948560 !
1"

#101769894
r0.1607311154799597 !
1"

#102507357
r0.1614812636073177 !
1"

#103244820
r0.1622255684081942 !
1"

#103982283
r0.1627800016625978 !
1"

#104719746
r0.1635142373921777 !
1"

#105457209
r0.1642428075709861 !
1"

#106194672
r0.1647855552063663 !
1"

#106932135
r0.1655043621457618 !
1"

#107669598
r0.1662176752734019 !
1"

#108407061
r0.1667490911330554 !
1"

#109144524
r0.1674529356467389 !
1"

#109881987
r0.1681514520959133 !
1"

#110619450
r0.1686718782395721 !
1"

#111356913
r0.1693612114066738 !
1"

#112094376
r0.1700453761232642 !
1"

#112831839
r0.1706398246027633 !
1"

#113569302
r0.1713144502112522 !
1"

#114306765
r0.1718171297620685 !
1"

#115044228
r0.1724830267387608 !
1"

#115781691
r0.1731440095457545 !
1"

#116519154
r0.1736365450378245 !
1"

#117256617
r0.1742890251535344 !
0"

#117994080
r0.1749367358417971 !
0"

#118731543
r0.1754194201891322 !
0"

#119469006
r0.1760390023892403 !
0"

#120206469
r0.1766146645314574 !
0"

#120943932
r0.1772455195825416 !
0"

#121681395
r0.1778718425886244 !
0"

#122418858
r0.1783386408008503 !
0"

#123156321
r0.1789571528198990 !
0"

#123893784
r0.1795712692305180 !
0"

#124631247
r0.1800290012560709 !
0"

#125368710
r0.1806355423487506 !
0"

#126106173
r0.1812378207571324 !
0"

#126843636
r0.1818358839655040 !
0"

#127581099
r0.1822816934588079 !
0"

#128318562
r0.1828724929810104 !
0"

#129056025
r0.1834592055866404 !
0"

#129793488
r0.1838965855842869 !
0"

#130530951
r0.1844762560895471 !
0"

#131268414
r0.1850519646550890 !
0"

#132005877
r0.1854811729284628 !
0"

#132743340
r0.1860500552724624 !
0"

#133480803
r0.1866150974436908 !
0"

#134218266
r0.1870363851461760 !
0"

#134955729
r0.1875948114636164 !
0"

#135693192
r0.1881495162966789 !
0"

#136430655
r0.1885631282357021 !
0"

#137168118
r0.1891114223431982 !
0"

#137905581
r0.1896561107579697 !
0"

#138643044
r0.1901972349125894 !
0"

#139380507
r0.1906007637152607 !
0"

#140117970
r0.1911357490974464 !
0"

#140855433
r0.1916672824448138 !
0"

#141592896
r0.1920636912627951 !
0"

#142330359
r0.1925892801409879 !
0"

#143067822
r0.1931115268487937 !
0"

#143805285
r0.1935010422730473 !
0"

#144542748
r0.1940175346970354 !
0"

#145280211
r0.1945307923445863 !
0"

#146017674
r0.1949136358088702 !
0"

#146755137
r0.1954213244027694 !
0"

#147492600
r0.1959258821308613 !
0"

#148230063
r0.1963022677725872 !
0"

#148967526
r0.1968014336859518 !
0"

#149704989
r0.1972643657923953 !
0"

#150442452
r0.1977576994899426 !
0"

#151179915
r0.1981257492843385 !
0"

#151917378
r0.1986139065446511 !
0"

#152654841
r0.1990991473128357 !
0"

#153392304
r0.1995815003374738 !
0"

#154129767
r0.1999413868850795 !
0"

#154867230
r0.2004187535309503 !
0"

#155604693
r0.2008933089653023 !
0"

#156342156
r0.2013062608141526 !
0"

#157079619
r0.2016585383278325 !
0"

#157817082
r0.2021258498794191 !
0"

#158554545
r0.2025904554085153 !
0"

#159292008
r0.2030523853328819 !
0"

#160029471
r0.2033970953375366 !
0"

#160766934
r0.2038544166054100 !
0"

#161504397
r0.2043091460788808 !
0"

#162241860
r0.2046485102036442 !
0"

#162979323
r0.2050987751696471 !
0"

#163716786
r0.2055465285756613 !
0"

#164454249
r0.2058807122963975 !
0"

#165191712
r0.2063241375938872 !
0"

#165929175
r0.2067651272124111 !
0"

#166666638
r0.2070942871333196 !
0"

#167404101
r0.2075310785138018 !
0"

#168141564
r0.2079655069418535 !
0"

#168879027
r0.2082897930787154 !
0"

#169616490
r0.2087201480811691 !
0"

#170353953
r0.2091482100967501 !
0"

#171091416
r0.2095740040099562 !
0"

#171828879
r0.2098918759102280 !
0"

#172566342
r0.2103137603728679 !
0"

#173303805
r0.2107334454228831 !
0"

#174041268
r0.2110467810917521 !
0"

#174778731
r0.2114626765397314 !
0"

#175516194
r0.2118764321185806 !
0"

#176253657
r0.2121853465940473 !
0"

#176991120
r0.2125953595430728 !
0"

#177728583
r0.2130032383498610 !
0"

#178466046
r0.2133077667869618 !
0"

#179203509
r0.2137120086971878 !
0"

#179940972
r0.2141142520164920 !
0"

#180678435
r0.2144146530665767 !
0"

#181415898
r0.2148135125376450 !
0"

#182153361
r0.2152104916349442 !
0"

#182890824
r0.2156056269808325 !
0"

#183628287
r0.2159007912816351 !
0"

#184365750
r0.2162927921954687 !
0"

#185103213
r0.2166830539472731 !
0"

#185840676
r0.2169746243909854 !
0"

#186578139
r0.2173135574523474 !
0"

#187315602
r0.2176991489492085 !
0"

#188053065
r0.2180825030484521 !
0"

#188790528
r0.2184632236697032 !
0"

#189527991
r0.2187470351557378 !
0"

#190265454
r0.2191229332308251 !
0"

#191002917
r0.2194967739608331 !
0"

#191740380
r0.2197759997773643 !
0"

#192477843
r0.2201468854072279 !
0"

#193215306
r0.2204724486764466 !
0"

#193952769
r0.2208381934275355 !
0"

#194690232
r0.2212048034257781 !
0"

#195427695
r0.2214788299383826 !
0"

#196165158
r0.2218429765926175 !
0"

#196902621
r0.2222057518626107 !
0"

#197640084
r0.2224769535096944 !
0"

#198377547
r0.2228374137679998 !
0"

#199115010
r0.2231966022418906 !
0"

#199852473
r0.2234651735695503 !
0"

#200589936
r0.2238221868379161 !
0"

#201327399
r0.2241779511274428 !
0"

#202064862
r0.2244439947281281 !
0"

#202802325
r0.2247098282460053 !
0"

#203539788
r0.2232014750261241 !
0"

#204277251
r0.2213907206106361 !
0"

#205014714
r0.2195866241031471 !
0"

#205752177
r0.2178025018514084 !
0"

#206489640
r0.2164771009241209 !
0"

#207227103
r0.2147265198525364 !
0"

#207964566
r0.2129946841466660 !
0"

#208702029
r0.2117079479721782 !
0"

#209439492
r0.2100082784068099 !
0"

#210176955
r0.2083264265410524 !
0"

#210914418
r0.2070766260145641 !
0"

#211651881
r0.2054256825645134 !
0"

#212389344
r0.2037922226631891 !
0"

#213126807
r0.2025784922494753 !
0"

#213864270
r0.2009752038042561 !
0"

#214601733
r0.1993889247386385 !
0"

#215339196
r0.1982102908535547 !
0"

#216076659
r0.1966534318034982 !
0"

#216814122
r0.1951131807128129 !
0"

#217551585
r0.1935893870327574 !
0"

#218289048
r0.1924572507654261 !
0"

#219026511
r0.1909618919223521 !
0"

#219763974
r0.1894825708034659 !
0"

#220501437
r0.1883835120139100 !
0"

#221238900
r0.1869318857772831 !
0"

#221976363
r0.1854958724743425 !
0"

#222713826
r0.1844290151426994 !
0"

#223451289
r0.1828848883441239 !
0"

#224188752
r0.1818391565919760 !
0"

#224926215
r0.1804580056926208 !
0"

#225663678
r0.1790917472457400 !
0"

#226401141
r0.1780767307583278 !
0"

#227138604
r0.1775225320270125 !
0"

#227876067
r0.1783988258608794 !
0"

#228613530
r0.1792670387725169 !
0"

#229350993
r0.1799133972093012 !
0"

#230088456
r0.1807054187324459 !
0"

#230825919
r0.1815438756067254 !
1"

#231563382
r0.1823860175245297 !
1"

#232300845
r0.1830130939044007 !
1"

#233038308
r0.1838432184245361 !
1"

#233775771
r0.1846665823519526 !
1"

#234513234
r0.1852797145482099 !
1"

#235250697
r0.1860914303579252 !
1"

#235988160
r0.1868965931200046 !
1"

#236725623
r0.1874962091568442 !
1"

#237463086
r0.1882900745855773 !
1"

#238200549
r0.1890775859800811 !
1"

#238938012
r0.1898588162736256 !
1"

#239675475
r0.1904406593717215 !
1"

#240412938
r0.1912110665523827 !
1"

#241150401
r0.1919753842272779 !
1"

#241887864
r0.1925446672696415 !
1"

#242625327
r0.1932984901555425 !
1"

#243362790
r0.1940464093536132 !
1"

#244100253
r0.1946035143336780 !
1"

#244837716
r0.1953412610056872 !
1"

#245575179
r0.1960732843223937 !
1"

#246312642
r0.1966185844887987 !
1"

#247050105
r0.1973407458936130 !
1"

#247787568
r0.1980573586105079 !
1"

#248525031
r0.1985912142167501 !
1"

#249262494
r0.1992982657595277 !
1"

#249999957
r0.1999999376971308 !
1"

#250737420
r0.2006962902223897 !
1"

#251474883
r0.2012150996287245 !
1"

#252212346
r0.2019022863328735 !
1"

#252949809
r0.2025843165381356 !
1"

#253687272
r0.2030924905379087 !
1"

#254424735
r0.2037656376523073 !
1"

#255162198
r0.2044337868497973 !
1"

#255899661
r0.2049316497724274 !
1"

#256637124
r0.2055911693854752 !
1"

#257374587
r0.2062458084574444 !
1"

#258112050
r0.2067336062494373 !
1"

#258849513
r0.2073798011455843 !
1"

#259586976
r0.2080212581336254 !
1"

#260324439
r0.2085787101068180 !
1"

#261061902
r0.2092115011464238 !
1"

#261799365
r0.2096831277994392 !
1"

#262536828
r0.2103080612814341 !
1"

#263274291
r0.2109285928730136 !
1"

#264011754
r0.2113911404531937 !
1"

#264749217
r0.2120041197996245 !
1"

#265486680
r0.2126128715880184 !
1"

#266224143
r0.2130667000538679 !
1"

#266961606
r0.2136494761607356 !
1"

#267699069
r0.2141911750931378 !
1"

#268436532
r0.2147849899208633 !
1"

#269173995
r0.2153744465796060 !
1"

#269911458
r0.2158134474916109 !
1"

#270648921
r0.2163945329500480 !
1"

#271386384
r0.2169707253132435 !
1"

#272123847
r0.2173997982033626 !
1"

#272861310
r0.2179683140455520 !
1"

#273598773
r0.2185329313726649 !
1"

#274336236
r0.2190937936761050 !
1"

#275073699
r0.2195120405089249 !
1"

#275811162
r0.2200665659606761 !
1"

#276548625
r0.2206175580465393 !
1"

#277286088
r0.2210285136212097 !
1"

#278023551
r0.2215734427502764 !
1"

#278761014
r0.2221149787646817 !
1"

#279498477
r0.2225189392142650 !
1"

#280235940
r0.2230546803956880 !
1"

#280973403
r0.2235871895782858 !
1"

#281710866
r0.2239844754645334 !
1"

#282448329
r0.2245114208169051 !
1"

#283185792
r0.2250352004780712 !
1"

#283923255
r0.2254259658183519 !
1"

#284660718
r0.2259442377622267 !
1"

#285398181
r0.2264593852263628 !
1"

#286135644
r0.2269714312942122 !
1"

#286873107
r0.2273534466189949 !
1"

#287610570
r0.2278601310000248 !
1"

#288348033
r0.2283637907865437 !
1"

#289085496
r0.2287395535542608 !
1"

#289822959
r0.2292379675493575 !
1"

#290560422
r0.2297334197624647 !
1"

#291297885
r0.2301030694970090 !
1"

#292035348
r0.2305927800892581 !
1"

#292772811
r0.2310795029394255 !
1"

#293510274
r0.2314426069528884 !
1"

#294247737
r0.2319241691948335 !
1"

#294985200
r0.2324027993249053 !
1"

#295722663
r0.2327598590499060 !
1"

#296460126
r0.2332334090585103 !
1"

#297197589
r0.2336726000757607 !
1"

#297935052
r0.2341406583073070 !
1"

#298672515
r0.2344898773114116 !
1"

#299409978
r0.2349531095313067 !
1"

#300147441
r0.2354136543060736 !
1"

#300884904
r0.2358715648520557 !
1"

#301622367
r0.2362133017123109 !
1"

#302359830
r0.2366667341150457 !
1"

#303097293
r0.2371176859757302 !
1"

#303834756
r0.2375102810382313 !
1"

#304572219
r0.2378453476867287 !
1"

#305309682
r0.2382900775510194 !
1"

#306047145
r0.2387325434781817 !
1"

#306784608
r0.2391727861106568 !
1"

#307522071
r0.2395015179077842 !
1"

#308259534
r0.2399378772712066 !
1"

#308996997
r0.2403719585614961 !
1"

#309734460
r0.2406959804352929 !
1"

#310471923
r0.2411259028795857 !
1"

#311209386
r0.2415533850626126 !
1"

#311946849
r0.2418723989890109 !
1"

#312684312
r0.2422956451119110 !
1"

#313421775
r0.2427165610270259 !
1"

#314159238
r0.2430307596364781 !
1"

#314896701
r0.2434477492583844 !
1"

#315634164
r0.2438625490122189 !
1"

#316371627
r0.2441722453891060 !
1"

#317109090
r0.2445832999243829 !
1"

#317846553
r0.2449921512718088 !
1"

#318584016
r0.2453988012923181 !
1"

#319321479
r0.2457024238588983 !
1"

#320058942
r0.2461055512401353 !
1"

#320796405
r0.2465068278643575 !
1"

#321533868
r0.2468066174875712 !
1"

#322271331
r0.2472048324422878 !
1"

#323008794
r0.2476013503594584 !
1"

#323746257
r0.2478975529598183 !
1"

#324483720
r0.2482905612555318 !
1"

#325221183
r0.2486807528679385 !
1"

#325958646
r0.2489710239244569 !
1"

#326696109
r0.2493543090842923 !
1"

#327433572
r0.2497344862490113 !
1"

#328171035
r0.2500185222507547 !
1"

#328908498
r0.2503959904407101 !
1"

#329645961
r0.2507722397092664 !
1"

#330383424
r0.2511473518093342 !
1"

#331120887
r0.2514279790793769 !
1"

#331858350
r0.2518012869367866 !
1"

#332595813
r0.2521736935303442 !
1"

#333333276
r0.2524523992787809 !
1"

#334070739
r0.2527768450184072 !
0"

#334808202
r0.2531465898787691 !
0"

#335545665
r0.2535151495019323 !
0"

#336283128
r0.2538825003785773 !
0"

#337020591
r0.2541572164470854 !
0"

#337758054
r0.2545224423110273 !
0"

#338495517
r0.2548864510047617 !
0"

#339232980
r0.2551586228785804 !
0"

#339970443
r0.2555204163914663 !
0"

#340707906
r0.2558381665130159 !
0"

#341445369
r0.2561941861906235 !
0"

#342182832
r0.2565507112850405 !
0"

#342920295
r0.2568170441825753 !
0"

#343657758
r0.2571706841416532 !
0"

#344395221
r0.2575226023113212 !
0"

#345132684
r0.2577854036302858 !
0"

#345870147
r0.2581343112984303 !
0"

#346607610
r0.2584815707500563 !
0"

#347345073
r0.2587409878393979 !
0"

#348082536
r0.2590855920143311 !
0"

#348819999
r0.2594288305638214 !
0"

#349557462
r0.2596854334800827 !
0"

#350294925
r0.2600265675108374 !
0"

#351032388
r0.2603666725320870 !
0"

#351769851
r0.2606211511578046 !
0"

#352507314
r0.2609597315567733 !
0"

#353244777
r0.2612975016754328 !
0"

#353982240
r0.2616343659580061 !
0"

#354719703
r0.2618862908089376 !
0"

#355457166
r0.2622210048696932 !
0"

#356194629
r0.2625541425038598 !
0"

#356932092
r0.2628029357086449 !
0"

#357669555
r0.2631333577446565 !
0"

#358407018
r0.2634624410351089 !
0"

#359144481
r0.2637083634794610 !
0"

#359881944
r0.2640350497798015 !
0"

#360619407
r0.2643604815935351 !
0"

#361356870
r0.2646038960510635 !
0"

#362094333
r0.2649277262297219 !
0"

#362831796
r0.2652508427076051 !
0"

#363569259
r0.2654927434891489 !
0"

#364306722
r0.2658145416112014 !
0"

#365044185
r0.2661348640726046 !
0"

#365781648
r0.2664528918210714 !
0"

#366519111
r0.2666891637450373 !
0"

#367256574
r0.2669997564285561 !
0"

#367994037
r0.2673087885383213 !
0"

#368731500
r0.2675402149794988 !
0"

#369468963
r0.2678485077568939 !
0"

#370206426
r0.2681566073041647 !
0"

#370943889
r0.2684439979858222 !
0"

#371681352
r0.2686751179437283 !
0"

#372418815
r0.2689832802070481 !
0"

#373156278
r0.2692912125615826 !
0"

#373893741
r0.2695219037721922 !
0"

#374631204
r0.2698291451768463 !
0"

#375368667
r0.2701360360121808 !
0"

#376106130
r0.2703660065320662 !
0"

#376843593
r0.2706723987298898 !
0"

#377581056
r0.2709440519465519 !
0"

#378318519
r0.2712460224577670 !
0"

#379055982
r0.2715508574176674 !
0"

#379793445
r0.2717782892694113 !
0"

#380530908
r0.2720808084687980 !
0"

#381268371
r0.2723823381805983 !
0"

#382005834
r0.2726077397813400 !
0"

#382743297
r0.2729071833654304 !
0"

#383480760
r0.2732053274377138 !
0"

#384218223
r0.2734280932502592 !
0"

#384955686
r0.2737240651864278 !
0"

#385693149
r0.2740189761093164 !
0"

#386430612
r0.2743130224360534 !
0"

#387168075
r0.2745331328006708 !
0"

#387905538
r0.2748262630892139 !
0"

#388643001
r0.2751192283469836 !
0"

#389380464
r0.2753389444625618 !
0"

#390117927
r0.2756318704587328 !
0"

#390855390
r0.2759245216011590 !
0"

#391592853
r0.2761435601693085 !
0"

#392330316
r0.2764346303109476 !
0"

#393067779
r0.2767245052120999 !
0"

#393805242
r0.2769411093303478 !
0"

#394542705
r0.2772288543695349 !
0"

#395280168
r0.2775156652246854 !
0"

#396017631
r0.2777303836491506 !
0"

#396755094
r0.2780163131687208 !
0"

#397492557
r0.2783018861240469 !
0"

#398230020
r0.2785868337168778 !
0"

#398967483
r0.2787995775208185 !
0"

#399704946
r0.2790812206466786 !
0"

#400442409
r0.2793591903501379 !
0"

#401179872
r0.2795635259660192 !
0"

#401917335
r0.2798355794414256 !
0"

#402654798
r0.2801078733699247 !
0"

#403392261
r0.2803124999308165 !
0"

#404129724
r0.2805861508066946 !
0"

#404867187
r0.2808610126684526 !
0"

#405604650
r0.2810677692250413 !
0"

#406342113
r0.2813438838335924 !
0"

#407079576
r0.2816202807333242 !
0"

#407817039
r0.2818623324239169 !
0"

#408554502
r0.2821392012823958 !
0"

#409291965
r0.2823470124551989 !
0"

#410029428
r0.2826242187335695 !
0"

#410766891
r0.2829014826650149 !
0"

#411504354
r0.2831091215856041 !
0"

#412241817
r0.2833840849819809 !
0"

#412979280
r0.2836583712443083 !
0"

#413716743
r0.2838634979616788 !
0"

#414454206
r0.2841275733391871 !
0"

#415191669
r0.2843736306725153 !
0"

#415929132
r0.2846440533143088 !
0"

#416666595
r0.2849134674761571 !
0"

#417404058
r0.2851150158929571 !
0"

#418141521
r0.2853833252394845 !
1"

#418878984
r0.2856514972373039 !
1"

#419616447
r0.2858527752180791 !
1"

#420353910
r0.2861216188533470 !
1"

#421091373
r0.2863911296146515 !
1"

#421828836
r0.2866611104605069 !
1"

#422566299
r0.2868635607740104 !
1"

#423303762
r0.2871327827980972 !
1"

#424041225
r0.2874004934874611 !
1"

#424778688
r0.2876000750174236 !
1"

#425516151
r0.2878650065732966 !
1"

#426253614
r0.2881292365879670 !
1"

#426991077
r0.2883271592988669 !
1"

#427728540
r0.2885908207068372 !
1"

#428466003
r0.2888538181483746 !
1"

#429203466
r0.2890499911385434 !
1"

#429940929
r0.2893094619449514 !
1"

#430678392
r0.2895636464235621 !
1"

#431415855
r0.2897517922364148 !
1"

#432153318
r0.2900033225954921 !
1"

#432890781
r0.2902561667337288 !
1"

#433628244
r0.2905107175454690 !
1"

#434365707
r0.2907029187773799 !
1"

#435103170
r0.2909602914187732 !
1"

#435840633
r0.2912183936318988 !
1"

#436578096
r0.2914123044963714 !
1"

#437315559
r0.2916712950732408 !
1"

#438053022
r0.2919307788307957 !
1"

#438790485
r0.2921256795134005 !
1"

#439527948
r0.2923857215063476 !
1"

#440265411
r0.2926457108758573 !
1"

#441002874
r0.2928391819006997 !
1"

#441740337
r0.2930967563292119 !
1"

#442477800
r0.2933536889535422 !
1"

#443215263
r0.2935458791314675 !
1"

#443952726
r0.2938013857401754 !
1"

#444690189
r0.2940389943903372 !
1"

#445427652
r0.2942930463265319 !
1"

#446165115
r0.2944833183507480 !
1"

#446902578
r0.2947369709965257 !
1"

#447640041
r0.2949909829656652 !
1"

#448377504
r0.2952457719849155 !
1"

#449114967
r0.2954375018294033 !
1"

#449852430
r0.2956938469488826 !
1"

#450589893
r0.2959503820283780 !
1"

#451327356
r0.2961739994509786 !
1"

#452064819
r0.2963641435908966 !
1"

#452802282
r0.2966155463805802 !
1"

#453539745
r0.2968658953770427 !
1"

#454277208
r0.2971160713321621 !
1"

#455014671
r0.2973037720107765 !
1"

#455752134
r0.2975536988961514 !
1"

#456489597
r0.2978021462269260 !
1"

#457227060
r0.2979868910298668 !
1"

#457964523
r0.2982275884365890 !
1"

#458701986
r0.2984662422437431 !
1"

#459439449
r0.2986460004476040 !
1"

#460176912
r0.2988873272754177 !
1"

#460914375
r0.2991310241846341 !
1"

#461651838
r0.2993149705882295 !
1"

#462389301
r0.2995610400914052 !
1"

#463126764
r0.2998077937397627 !
1"

#463864227
r0.2999932808501071 !
1"

#464601690
r0.3002411787650283 !
1"

#465339153
r0.3004897019307516 !
1"

#466076616
r0.3007386540307230 !
1"

#466814079
r0.3009254399684124 !
1"

#467551542
r0.3011726186048913 !
1"

#468289005
r0.3014196755443168 !
1"

#469026468
r0.3016047727375891 !
1"

#469763931
r0.3018511737801371 !
1"

#470501394
r0.3020969971631308 !
1"

#471238857
r0.3022809613081915 !
1"

#471976320
r0.3025258083973572 !
1"

#472713783
r0.3027704233679208 !
1"

#473451246
r0.3029539858987667 !
1"

#474188709
r0.3031992578593160 !
1"

#474926172
r0.3034454387666451 !
1"

#475663635
r0.3036306765795059 !
1"

#476401098
r0.3038780858864729 !
1"

#477138561
r0.3041245010526233 !
1"

#477876024
r0.3043678517420483 !
1"

#478613487
r0.3045490010507890 !
1"

#479350950
r0.3047900368750906 !
1"

#480088413
r0.3045828077599703 !
1"

#480825876
r0.3025735823668306 !
1"

#481563339
r0.3012671477740301 !
1"

#482300802
r0.2993749785262828 !
1"

#483038265
r0.2974992856786549 !
1"

#483775728
r0.2956382907239108 !
1"

#484513191
r0.2942565860124728 !
1"

#485250654
r0.2926253066581820 !
1"

#485988117
r0.2908218115748181 !
1"

#486725580
r0.2890401406627503 !
1"

#487463043
r0.2877175163202016 !
1"

#488200506
r0.2860424554282038 !
1"

#488937969
r0.2844929851220393 !
1"

#489675432
r0.2827833673627094 !
1"

#490412895
r0.2810929967493807 !
1"

#491150358
r0.2798376794019883 !
1"

#491887821
r0.2781801697938482 !
1"

#492625284
r0.2765409350867479 !
1"

#493362747
r0.2753218300856477 !
1"

#494100210
r0.2737114984005786 !
1"

#494837673
r0.2721181449116811 !
1"

#495575136
r0.2705414012521349 !
0"

#496312599
r0.2693695524146016 !
0"

#497050062
r0.2678213094594242 !
0"

#497787525
r0.2662893147372258 !
0"

#498524988
r0.2651510155134360 !
0"

#499262451
r0.2636476034156627 !
0"

#499999914
r0.2621606198891371 !
0"

#500737377
r0.2610561958558383 !
0"

#501474840
r0.2595980426008840 !
0"

#502212303
r0.2581562078189270 !
0"

#502949766
r0.2570853018807245 !
0"

#503687229
r0.2556708873259657 !
0"

#504424692
r0.2542712814769985 !
0"

#505162155
r0.2532310824928914 !
0"

#505899618
r0.2518568100191345 !
0"

#506637081
r0.2504970932027510 !
0"

#507374544
r0.2491519262052227 !
0"

#508112007
r0.2481523624448506 !
0"

#508849470
r0.2468318655124593 !
0"

#509586933
r0.2455254381535307 !
0"

#510324396
r0.2445548821291544 !
0"

#511061859
r0.2432731411350153 !
0"

#511799322
r0.2420054352285808 !
0"

#512536785
r0.2410637991882416 !
0"

#513274248
r0.2398202245045282 !
0"

#514011711
r0.2385897060840509 !
0"

#514749174
r0.2376748798094653 !
0"

#515486637
r0.2364653584161103 !
0"

#516224100
r0.2352672548223184 !
0"

#516961563
r0.2343760545256036 !
0"

#517699026
r0.2331984133781889 !
0"

#518436489
r0.2321113580363330 !
0"

#519173952
r0.2309585018730869 !
0"

#519911415
r0.2301022324612427 !
0"

#520648878
r0.2289716151262711 !
0"

#521386341
r0.2278535109105481 !
0"

#522123804
r0.2277949831711508 !
0"

#522861267
r0.2286120375537043 !
0"

#523598730
r0.2296925322867345 !
0"

#524336193
r0.2307633999612198 !
0"

#525073656
r0.2317324067242788 !
0"

#525811119
r0.2325232546948285 !
0"

#526548582
r0.2335698775542617 !
0"

#527286045
r0.2346076383488652 !
0"

#528023508
r0.2356366136890612 !
0"

#528760971
r0.2364026249983593 !
0"

#529498434
r0.2374164137330410 !
0"

#530235897
r0.2384216469800138 !
0"

#530973360
r0.2391700155711554 !
0"

#531710823
r0.2401605112689544 !
0"

#532448286
r0.2411427204071915 !
0"

#533185749
r0.2418739808236836 !
0"

#533923212
r0.2428418846975865 !
0"

#534660675
r0.2438017377938163 !
0"

#535398138
r0.2445162006783109 !
0"

#536135601
r0.2454612284540020 !
0"

#536873064
r0.2463983016607939 !
0"

#537610527
r0.2470959107514684 !
0"

#538347990
r0.2480191631041285 !
0"

#539085453
r0.2489345806660340 !
0"

#539822916
r0.2498422189353429 !
0"

#540560379
r0.2505178832516013 !
0"

#541297842
r0.2514120822274134 !
0"

#542035305
r0.2522987266401095 !
0"

#542772768
r0.2529588159531887 !
0"

#543510231
r0.2538325014903862 !
0"

#544247694
r0.2546989454233000 !
0"

#544985157
r0.2553441025428652 !
0"

